_id,tradePosttype,exchangeshift,timeslot,shiftTime,trade_conditional,__v,status
ObjectId(5acff8fff6c22c3c706dc17e),coworker,18:00 - 23:55,Night,4:00PM - 11:55PM,true,0,Approve
ObjectId(5ad9885d0747896b6b645377),onBoard,,Night,4:30PM - 10:30PM,false,0,
ObjectId(5af4b3499c5cd439b3127975),onBoard,,Afternoon,11:45AM - 5:00PM,false,0,Approve
ObjectId(5af4bacffdd05b5a7b75b1cc),onBoard,,Afternoon,2:00PM - 7:00PM,false,0,
ObjectId(5b3686652e2bcde395eb79f3),coworker,17:00 - 23:55,Night,4:00PM,true,0,Approve
ObjectId(5b4f97441f925ffb96b5e95f),onBoard,,Night,3:45PM,false,0,
ObjectId(5b580d8c27f790400e721302),onBoard,,Afternoon,2:00PM - 7:00PM,false,0,
ObjectId(5b581afa27f790400e721311),onBoard,,Night,6:00PM,false,0,
ObjectId(5b620a6c573a32372035d42c),onBoard,,Afternoon,1:00PM - 8:30PM,false,0,
ObjectId(5b632616ea054e9f25716b6e),onBoard,,Morning,9:00AM - 5:00PM,false,0,
ObjectId(5b64a7aee1028ed04f79f1f0),onBoard,,Night,3:05PM - 9:30PM,false,0,Approve
ObjectId(5b65d405e1028ed04f79f671),onBoard,,Morning,7:30AM - 1:30PM,false,0,
ObjectId(5b66522ae1028ed04f79f80e),onBoard,,Night,4:45PM,false,0,
ObjectId(5b68f7cae1028ed04f79f9b2),onBoard,,Afternoon,1:00PM - 8:30PM,false,0,
ObjectId(5b6b3c0ece1fd46f034b61ea),coworker,4:00PM - 10:00PM,Night,5:00PM,true,0,Approve
ObjectId(5b6cb17a3abb251f5429bde1),coworker,,Night,4:30PM,false,0,Approve
ObjectId(5b6f6371c712949e64caa568),coworker,10:00AM - 6:00PM,Morning,9:00AM - 5:00PM,false,0,Approve
ObjectId(5b71fd2774f6354a4318cf7e),onBoard,,Night,4:45PM,false,0,Approve
ObjectId(5b71fd7374f6354a4318cf7f),onBoard,,Night,4:45PM,false,0,
ObjectId(5b7ba86dbce19b5056192385),onBoard,,Late Night,11:05PM,false,0,Approve
ObjectId(5b8b4420d26fc1f38782f088),coworker,,Afternoon,2:00PM - 6:00PM,false,0,Approve
ObjectId(5b95594508da25311cdf7449),onBoard,,Afternoon,2:00PM - 6:00PM,false,0,
ObjectId(5b9596a508da25311cdf745e),onBoard,,Night,6:15PM,false,0,
ObjectId(5b9736c108da25311cdf7580),onBoard,,Morning,9:45AM - 6:00PM,false,0,
ObjectId(5b9a03e5f2eea01812ccc335),onBoard,,Afternoon,2:00PM - 6:00PM,false,0,
ObjectId(5b9f3b66e4220fe23c4475d7),onBoard,,Night,6:15PM,false,0,
ObjectId(5ba030e8e4220fe23c447669),onBoard,,Night,4:30PM,false,0,Approve
ObjectId(5ba0417ce4220fe23c447674),onBoard,,Night,3:45PM,false,0,Approve
ObjectId(5ba0921ee4220fe23c4476ae),onBoard,,Night,3:30PM,false,0,
ObjectId(5ba18b41872ea8b6cdd26044),onBoard,,Night,3:45PM,false,0,
ObjectId(5ba575f1bbea5830114f303c),onBoard,,Night,5:30PM,false,0,
ObjectId(5ba69f61bbea5830114f30ee),onBoard,,Afternoon,11:00AM - 7:00PM,false,0,
ObjectId(5ba84f7cbbea5830114f31df),onBoard,,Night,7:00PM,false,0,
ObjectId(5ba93cbfef0d208098277fbf),coworker,2:00PM - 10:00PM,Night,5:00PM,false,0,Approve
ObjectId(5bad16343fdee1ad4690a186),onBoard,,Night,7:15PM,false,0,
ObjectId(5bb372cb3fdee1ad4690acc0),onBoard,,Afternoon,3:45PM,false,0,
ObjectId(5bc570025bcba7b938bb61ed),onBoard,,Late Night,11:05PM,false,0,Approve
ObjectId(5bc572115bcba7b938bb61ef),onBoard,,Late Night,11:05PM,false,0,Approve
ObjectId(5bc6d91e723fd7faf94fce1f),onBoard,,Night,5:15PM,false,0,Approve
ObjectId(5bc8dd18fd5b9b3372a43ae4),onBoard,,Afternoon,11:30AM,false,0,Approve
ObjectId(5bc8f78efd5b9b3372a43aea),coworker,,Afternoon,10:15AM,false,0,Approve
ObjectId(5bd10cbe692556e0a8de0c19),onBoard,,Afternoon,3:00PM,false,0,
ObjectId(5bd1486520cd0bef6d7f704a),onBoard,,Night,4:30PM,false,0,
ObjectId(5bd21aee20cd0bef6d7f715d),onBoard,,Afternoon,10:30AM,false,0,Approve
ObjectId(5bd365505edbce72876aaaca),onBoard,,Night,4:15PM,false,0,
ObjectId(5bd7488d5edbce72876aaef9),coworker,,Night,5:00PM,false,0,Approve
ObjectId(5bd9ba28f9e55e1d4b7203ae),onBoard,,Afternoon,1:15PM,false,0,
ObjectId(5bdc9ffd9d9f866daa7aa28e),coworker,,Afternoon,10:00AM - 7:00PM,false,0,
ObjectId(5bdddd4a9d9f866daa7aa412),onBoard,,Night,4:00PM,false,0,
ObjectId(5be0712c7f4164bf6444fc60),onBoard,,Night,6:30PM,false,0,
ObjectId(5be399bc09092c9e95350a93),onBoard,,Morning,10:00AM - 3:00PM,false,0,
ObjectId(5bebc511748c2724b47bdbfe),onBoard,,Morning,10:30AM,false,0,Approve
ObjectId(5bebe689c9d0fe2b4b615262),onBoard,,Morning,6:15AM,false,0,Approve
ObjectId(5bebf395c9d0fe2b4b615286),onBoard,,Morning,6:15AM,false,0,Approve
ObjectId(5bebf84cc9d0fe2b4b615290),onBoard,,Morning,10:30AM,false,0,Approve
ObjectId(5bed3f428aead7e1b2a22470),onBoard,,Morning,6:15AM,false,0,
ObjectId(5bed418c11a3399ec499a16f),,,Morning,7:40AM,false,0,Approve
ObjectId(5bee490911a3399ec499ab40),onBoard,,Afternoon,10:45AM,false,0,
ObjectId(5bee85252cc3110299cfc853),onBoard,,Late Night,11:10AM,false,0,Approve
ObjectId(5bef5ab9dd697d05f6a879c3),coworker,,Night,4:00PM,false,0,Approve
ObjectId(5bf2603f9501439983a646b0),coworker,12:45PM - 9:00PM,Night,3:45PM,false,0,Approve
ObjectId(5bf3abf22f17b30d6f49b463),,,Morning,6:00AM,false,0,
ObjectId(5bf3abf62f17b30d6f49b464),,,Afternoon,10:00AM,false,0,
ObjectId(5bf3abfe2f17b30d6f49b465),,,Night,1:25PM,false,0,
ObjectId(5bf3ac022f17b30d6f49b466),,,Late Night,9:20PM,false,0,
ObjectId(5bf408387fbc2b4bdce5b5c7),onBoard,,Afternoon,,false,0,
ObjectId(5bf64e72f0d6077e1e883495),onBoard,,Morning,1:35AM,false,0,
ObjectId(5bf65889f0d6077e1e8834b8),onBoard,,Morning,10:30AM,false,0,
ObjectId(5bf8a906d0df743c478c47df),coworker,8:30AM - 5:00PM,Afternoon,2:00PM - 5:00PM,false,0,
ObjectId(5bfb02e9d0df743c478c4df9),onBoard,,Afternoon,10:45AM,false,0,
ObjectId(5bfb839cd0df743c478c5057),coworker,6:30AM - 8:50AM,Morning,6:15AM,false,0,Approve
ObjectId(5bfb83b1d0df743c478c5058),coworker,9:35AM - 12:20PM,Afternoon,10:05AM,false,0,Approve
ObjectId(5bfb83c3d0df743c478c5059),onBoard,,Night,4:05PM,false,0,
ObjectId(5bfb83d1d0df743c478c505a),onBoard,,Late Night,9:40PM,false,0,Approve
ObjectId(5bfbba4e92bb14706d7eaf3e),onBoard,,Morning,12:40AM - 3:20AM,false,0,
ObjectId(5bfbba5492bb14706d7eaf3f),onBoard,,Afternoon,4:45AM - 8:20AM,false,0,
ObjectId(5bfbba5b92bb14706d7eaf40),onBoard,,Night,2:25PM - 7:55PM,false,0,
ObjectId(5bfbba6192bb14706d7eaf41),onBoard,,Late Night,7:35PM - 10:50PM,false,0,Approve
ObjectId(5bfbbb3a92bb14706d7eaf45),coworker,4:45AM - 8:20AM,Afternoon,4:00AM,false,0,Approve
ObjectId(5bfbbb3c92bb14706d7eaf46),coworker,4:45AM - 8:20AM,Afternoon,4:00AM,false,0,Approve
ObjectId(5bfc573e5143af64b2183fe9),onBoard,,Afternoon,1:30PM - 4:30PM,false,0,
ObjectId(5bfe62491f1f5c2f76a89e22),onBoard,,Morning,6:40AM,false,0,
ObjectId(5bfe62531f1f5c2f76a89e23),onBoard,,Afternoon,9:20AM,false,0,
ObjectId(5bfe62591f1f5c2f76a89e24),onBoard,,Night,3:20PM,false,0,
ObjectId(5bfe62611f1f5c2f76a89e25),onBoard,,Late Night,9:15PM,false,0,
ObjectId(5bfe62f51f1f5c2f76a89e28),onBoard,,Morning,2:30AM,false,0,
ObjectId(5bfe62fc1f1f5c2f76a89e29),onBoard,,Afternoon,4:55AM,false,0,
ObjectId(5bfe63091f1f5c2f76a89e2a),onBoard,,Night,10:25AM,false,0,
ObjectId(5bfe630f1f1f5c2f76a89e2b),onBoard,,Late Night,3:45PM,false,0,
ObjectId(5bfe63bb1f1f5c2f76a89e30),onBoard,,Morning,2:25AM,false,0,
ObjectId(5bfe63c71f1f5c2f76a89e31),onBoard,,Afternoon,4:45AM,false,0,
ObjectId(5bfe63d21f1f5c2f76a89e32),coworker,,Night,9:00AM,false,0,
ObjectId(5bfe644e1f1f5c2f76a89e38),onBoard,,Late Night,1:20PM,false,0,
ObjectId(5bfe6d911f1f5c2f76a89e76),onBoard,,Morning,2:25AM,false,0,
ObjectId(5bfe6d981f1f5c2f76a89e77),onBoard,,Afternoon,4:45AM,false,0,
ObjectId(5bfe6d9e1f1f5c2f76a89e78),onBoard,,Night,9:00AM,false,0,
ObjectId(5bfe6da31f1f5c2f76a89e79),onBoard,,Late Night,1:20PM,false,0,
ObjectId(5bfe6dff1f1f5c2f76a89e7c),onBoard,,Morning,6:40AM,false,0,
ObjectId(5bfe6e051f1f5c2f76a89e7d),onBoard,,Afternoon,9:20AM,false,0,
ObjectId(5bfe6e0b1f1f5c2f76a89e7e),onBoard,,Night,3:20PM,false,0,
ObjectId(5bfe6e111f1f5c2f76a89e7f),onBoard,,Late Night,9:15PM,false,0,
ObjectId(5bfe6f5f1f1f5c2f76a89e8a),coworker,6:40AM - 8:30AM,Morning,2:30AM,false,0,Approve
ObjectId(5bfe6f6a1f1f5c2f76a89e8b),coworker,9:20AM - 12:05PM,Afternoon,4:55AM,false,0,Approve
ObjectId(5bfe6f771f1f5c2f76a89e8c),coworker,3:20PM - 5:05PM,Night,10:25AM,false,0,Approve
ObjectId(5bfe6f841f1f5c2f76a89e8d),coworker,9:15PM - 11:25PM,Late Night,3:45PM,false,0,Approve
ObjectId(5bfe824ec72beba7d075461c),onBoard,,Morning,3:20AM,false,0,
ObjectId(5bfe8255c72beba7d075461d),onBoard,,Afternoon,9:20AM,false,0,
ObjectId(5bfe825bc72beba7d075461e),onBoard,,Night,3:20PM,false,0,
ObjectId(5bfe8261c72beba7d075461f),onBoard,,Late Night,8:30PM,false,0,
ObjectId(5bfe82a61f27a039d28ad35e),,,Morning,3:20AM,false,0,
ObjectId(5bfe82ad1f27a039d28ad35f),onBoard,,Afternoon,9:20AM,false,0,
ObjectId(5bfe82b21f27a039d28ad360),onBoard,,Night,3:20PM,false,0,
ObjectId(5bfe82b71f27a039d28ad361),onBoard,,Late Night,8:30PM,false,0,
ObjectId(5bfe85381f27a039d28ad36d),onBoard,,Morning,,false,0,
ObjectId(5bff40db9461f04fe00b04ce),onBoard,,Night,5:15PM,false,0,Approve
ObjectId(5bffd6a57f9f20b9c65d2950),onBoard,,Morning,,false,0,
ObjectId(5bffd6a57f9f20b9c65d294f),onBoard,,Morning,,false,0,
ObjectId(5bffd6a37f9f20b9c65d294d),onBoard,,Morning,,false,0,Approve
ObjectId(5bffd6a57f9f20b9c65d294e),onBoard,,Morning,,false,0,Approve
ObjectId(5c00894a14feb6a6f3712e5e),onBoard,,Night,4:15PM,false,0,
ObjectId(5c00a90d14feb6a6f3712ed8),onBoard,,Afternoon,2:00PM - 7:00PM,false,0,
ObjectId(5c00c24114feb6a6f3712f6b),onBoard,,Night,9:55PM,false,0,Approve
ObjectId(5c00c24614feb6a6f3712f6c),onBoard,,Late Night,10:20PM,false,0,
ObjectId(5c00cd1828bb46c2619e2938),onBoard,,Afternoon,8:20PM,false,0,
ObjectId(5c00cd1f28bb46c2619e2939),onBoard,,Night,10:35PM,false,0,
ObjectId(5c00cd2428bb46c2619e293a),onBoard,,Late Night,11:00PM,false,0,
ObjectId(5c01206ad8f835efb209dff4),onBoard,,Afternoon,3:25AM,false,0,
ObjectId(5c01290603629028c498c613),onBoard,,Morning,4:10AM,false,0,
ObjectId(5c012b9703629028c498c640),onBoard,,Morning,4:55AM,false,0,
ObjectId(5c01722e94703e16e1343dca),onBoard,,Afternoon,5:30PM,false,0,
ObjectId(5c01d7ed94703e16e1344107),onBoard,,Night,4:00PM,false,0,
ObjectId(5c02a7fe94703e16e134428f),,,Night,5:15PM,false,0,
ObjectId(5c04b52494703e16e134493c),onBoard,,Night,7:40PM,false,0,
ObjectId(5c04d2f494703e16e1344b19),coworker,,Morning,6:30AM,false,0,Approve
ObjectId(5c081e5283bfa272af8d6859),coworker,,Night,4:30PM,false,0,Approve
ObjectId(5c08cceb2d66bb20474ce94e),onBoard,,Morning,,false,0,Approve
ObjectId(5c09a301ae7cc19cd04f64cb),coworker,,Night,4:30PM,false,0,Approve
ObjectId(5c0e27abcecd6ec518e84c54),onBoard,,Morning,12:05AM,false,0,Approve
ObjectId(5c0ff94d0e926f451391c06e),,,Night,5:15PM,false,0,
ObjectId(5c1046550e926f451391c17b),onBoard,,Night,5:30PM,false,0,
ObjectId(5c151ae04e885f2c4c616576),onBoard,,Night,5:15PM,false,0,Approve
ObjectId(5c1558628df0cbc91717fbb0),coworker,6:00PM - 12:00AM,Night,4:45PM,false,0,Approve
ObjectId(5c15c07c8df0cbc91717fd74),onBoard,,Afternoon,10:45AM - 2:00PM,false,0,
ObjectId(5c15dfa78df0cbc91717fdd1),onBoard,,Night,4:30PM,false,0,Approve
ObjectId(5c1622488df0cbc91717fe76),onBoard,,Morning,9:45AM - 3:00PM,false,0,
ObjectId(5c17e95579ce7a08eaf7ba1a),coworker,,Night,4:00PM,false,0,Approve
ObjectId(5c17e96b79ce7a08eaf7ba1b),coworker,,Afternoon,10:45AM,false,0,Approve
ObjectId(5c194fc37d995fa17443e77f),onBoard,,Night,5:00PM,false,0,Approve
ObjectId(5c194fff7d995fa17443e780),onBoard,,Night,1:30PM,false,0,Approve
ObjectId(5c1964ea7d995fa17443e7f2),onBoard,,Afternoon,10:15AM,false,0,
ObjectId(5c1b395a7d995fa17443ef2c),onBoard,,Afternoon,10:45AM,false,0,Approve
ObjectId(5c1ba837102c2bdd443db65b),onBoard,,Afternoon,1:00PM - 8:00PM,false,0,Approve
ObjectId(5c1d9c8c832490867f476c69),coworker,,Night,5:45PM,false,0,Approve
ObjectId(5c1da0a2832490867f476c73),onBoard,,Afternoon,10:15AM,false,0,
ObjectId(5c1db2f0832490867f476ca0),coworker,,Late Night,10:00PM,false,0,Approve
ObjectId(5c202c81832490867f4771f7),,,Night,3:30PM,false,0,
ObjectId(5c265576666e9d11c03fd56a),onBoard,,Night,2:45PM,false,0,
ObjectId(5c269a17666e9d11c03fd647),onBoard,,Night,6:00PM,false,0,
ObjectId(5c26bc1e666e9d11c03fd70e),coworker,,Night,4:30PM,false,0,Approve
ObjectId(5c293aaa666e9d11c03fdbe6),coworker,,Night,4:00PM,false,0,Approve
ObjectId(5c29464a666e9d11c03fdc14),onBoard,,Night,4:00PM,false,0,
ObjectId(5c296e47666e9d11c03fdc65),coworker,,Afternoon,4:30PM,false,0,Approve
ObjectId(5c29a359666e9d11c03fdeea),onBoard,,Morning,9:45AM - 3:00PM,false,0,
ObjectId(5c2fe4eac43508c3df7ab90d),coworker,,Afternoon,2:00PM,false,0,Approve
ObjectId(5c362edcc43508c3df7ac983),coworker,,Morning,8:00AM,false,0,Approve
ObjectId(5c366f70c43508c3df7aca87),coworker,,Morning,8:30AM,false,0,Approve
ObjectId(5c369e26c43508c3df7acbf7),onBoard,,Night,6:00PM,false,0,
ObjectId(5c36a603c43508c3df7acc0f),coworker,,Night,5:30PM,false,0,Approve
ObjectId(5c37a7d17d7aa00699ad847c),coworker,,Morning,9:30AM,false,0,Approve
ObjectId(5c37b6a37d7aa00699ad84cc),onBoard,,Morning,7:30AM,false,0,Approve
ObjectId(5c37b6c27d7aa00699ad84cd),onBoard,,Night,5:00PM,false,0,Approve
ObjectId(5c37cdf37d7aa00699ad8529),coworker,,Night,6:00PM,false,0,Approve
ObjectId(5c39779dd4a3d072b917835e),onBoard,,Morning,8:30AM,false,0,Approve
ObjectId(5c3a4490d4a3d072b9178519),onBoard,,Morning,7:30AM,false,0,
ObjectId(5c3b7db6d4a3d072b91788c3),onBoard,,Morning,7:30AM,false,0,Approve
ObjectId(5c3bdeded4a3d072b91789dd),onBoard,,Afternoon,2:00PM,false,0,Approve
ObjectId(5c3bdeedd4a3d072b91789de),onBoard,,Night,6:30PM,false,0,
ObjectId(5c3bf706d4a3d072b9178a24),coworker,,Morning,8:30AM,false,0,Approve
ObjectId(5c3cd2f3d4a3d072b9178b88),coworker,,Afternoon,2:30PM,false,0,Approve
ObjectId(5c3cd3a8d4a3d072b9178b89),coworker,,Morning,9:00AM,false,0,Approve
ObjectId(5c3e4761ce830c0f51ab8017),coworker,,Morning,9:30AM,false,0,Approve
ObjectId(5c3eaa52ce830c0f51ab82df),,,Night,6:30PM,false,0,
ObjectId(5c3f9dcea476545b95157090),onBoard,,Night,4:00PM,false,0,Approve
ObjectId(5c4152ed83d2446ed4df4a9b),onBoard,,Night,6:30PM,false,0,
ObjectId(5c434d58f8bde9810b85d105),onBoard,,Night,5:15PM,false,0,
ObjectId(5c43e577f8bde9810b85d330),onBoard,,Afternoon,11:30AM,false,0,
ObjectId(5c47fc467afeda5a97981091),onBoard,,Night,3:00PM,false,0,
ObjectId(5c48a6e77afeda5a979811c2),onBoard,,Morning,7:00AM,false,0,
ObjectId(5c48fc8d7afeda5a9798153e),onBoard,,Night,3:15PM,false,0,
ObjectId(5c48fc9c7afeda5a9798153f),onBoard,,Morning,6:00AM,false,0,
ObjectId(5c490ac57afeda5a979815a0),onBoard,,Morning,7:00AM,false,0,
ObjectId(5c490acd7afeda5a979815a1),onBoard,,Morning,6:00AM,false,0,
ObjectId(5c490ad57afeda5a979815a2),onBoard,,Morning,7:00AM,false,0,
ObjectId(5c490ae27afeda5a979815a3),onBoard,,Morning,7:30AM,false,0,
ObjectId(5c49e604f122651cd21fe3f3),onBoard,,Morning,7:30AM,false,0,
ObjectId(5c4a0cb3f122651cd21fe4bc),onBoard,,Morning,6:00AM,false,0,
ObjectId(5c4a4a23f122651cd21fe5a1),onBoard,,Night,3:15PM,false,0,
ObjectId(5c4a859bf122651cd21fe6bb),onBoard,,Morning,9:00AM,false,0,
ObjectId(5c4cb3adab7ea8fde0e6e706),onBoard,,Night,3:00PM,false,0,
ObjectId(5c4e117fab7ea8fde0e6ea4e),onBoard,,Morning,7:30AM,false,0,
ObjectId(5c4e13d6ab7ea8fde0e6ea54),coworker,,Morning,6:30AM,false,0,Approve
ObjectId(5c4e292dab7ea8fde0e6ea8f),coworker,,Night,2:45PM,false,0,Approve
ObjectId(5c4e9c83ab7ea8fde0e6ecd2),onBoard,,Afternoon,1:00PM,false,0,
ObjectId(5c4ef81bab7ea8fde0e6ed12),onBoard,,Night,6:30PM,false,0,
ObjectId(5c4f277fab7ea8fde0e6ed6b),coworker,,Night,5:00PM,false,0,Approve
ObjectId(5c4f6307ab7ea8fde0e6edca),onBoard,,Morning,6:00AM,false,0,
ObjectId(5c4f6304ab7ea8fde0e6edc9),onBoard,,Morning,6:00AM,false,0,
ObjectId(5c5001b4ab7ea8fde0e6efaa),onBoard,,Night,6:15PM,false,0,
ObjectId(5c8c4d498f3ccfcdd95f9c14),coworker,,Night,6:00PM,false,0,Approve
ObjectId(5c9289348ec818de38c360e3),onBoard,,Morning,09:15,false,0,
ObjectId(5c9289368ec818de38c360e4),onBoard,,Morning,09:15,false,0,
ObjectId(5c9289378ec818de38c360e5),onBoard,,Morning,09:15,false,0,
ObjectId(5c9289398ec818de38c360e6),onBoard,,Morning,09:15,false,0,
ObjectId(5c92893a8ec818de38c360e7),onBoard,,Morning,09:15,false,0,
ObjectId(5c96b2dc8ec818de38c37432),,,Night,6:00PM,false,0,
ObjectId(5ca520421048333ed32e557e),onBoard,,Night,17:30,false,0,
ObjectId(5cb214f7e4b4613122c089df),onBoard,,Night,4:45PM,false,0,
ObjectId(5cb6b8b8eb26778b3e46e2c2),onBoard,,Morning,10:00,false,0,
ObjectId(5cbe2ed145bc047876cf3d5d),onBoard,,Morning,09:00,false,0,
ObjectId(5cbe2ed145bc047876cf3d5e),onBoard,,Morning,09:15,false,0,
ObjectId(5cc0dfd0cf4528877f23e109),onBoard,,Night,16:45,false,0,
ObjectId(5cc1ded3cf4528877f23e3f0),onBoard,,Night,18:30,false,0,
ObjectId(5cc2b832cf4528877f23e6b1),onBoard,,Afternoon,1:00PM,false,0,
ObjectId(5cfe286ea54ff41286bba93c),coworker,7:00PM - 8:00PM,Morning,3:00PM - 6:00PM,false,0,Approve
