_id,title,description,creator_name,admin_checked,sent_to.0.mark_read,__v
ObjectId(5a71a867e9df509e1fbb46da),fgh,fghfgh,Test Admin,false,true,0
ObjectId(5a71aa8611d576d623030291),dgdg,dfgdfgdfg,Test Admin,false,true,0
ObjectId(5a71aa9911d576d623030294),dfgdfg,dfgdfg,Test Admin,false,true,0
ObjectId(5a71b10434b820462b68cd1f),testtt,check Now,Test Admin,true,true,0
ObjectId(5a8de436d621aa20ff191825),TEST,Please reply if this is working. I sent it to 5 people,Test Admin,true,true,0
ObjectId(5a8de595d621aa20ff191830),TEST,Changed the phone number,Test Admin,true,false,0
ObjectId(5a903ff5d621aa20ff191834),Test,"Hey Aaron can you text me when you get this?]

Joshua",Test Admin,true,true,0
ObjectId(5a904bf1d621aa20ff19183d),Question,Is this going to your email or phone number?,Test Admin,true,true,0
ObjectId(5a9982be4a859eb58df78c2f),Test,Yello,Test Admin,false,true,0
ObjectId(5ace3626813b5bee5fbc850d),wazzuhhhh,wazzuhhhhh,Test Admin,false,true,0
ObjectId(5ace3e3b813b5bee5fbc8518),Epic Mandatory employee meeting,"Our Employee meeting will be on Monday, April 16th @ 6pm. This is a mandatory meeting and you must get permission to not attend. 
Location: Jaycee park
817 W. 5th St. 
Tempe, AZ 85281
Food, activities, and a meeting will be going on.",Test Admin,true,false,0
ObjectId(5acfa67d35f35494718da7e6),Video for Diego Pops,https://youtu.be/gz-vlkDIA5I,Test Admin,false,false,0
ObjectId(5acfd1d535f35494718da7e9),Checking Damage on vehicles,All employees must check for damage on vehicles prior to parking them. Here is a video on how to do so.,Test Admin,false,false,0
ObjectId(5acfd1f135f35494718da8ac),Checking vehicles video,https://www.youtube.com/watch?v=HQDHFmIlEgM,Test Admin,true,false,0
ObjectId(5acfeb4835f35494718daa3a),Test pt. 2,,Test Admin,true,true,0
ObjectId(5acfed3cf6c22c3c706dc10c),hi,hi,Test Admin,false,false,0
ObjectId(5acfede2f6c22c3c706dc16b),test,test,Test Admin,false,true,0
ObjectId(5acfee28f6c22c3c706dc16e),test again,hello,Test Admin,false,true,0
ObjectId(5ad130be06ba24ba660802f8),PLEASE CALL IN!!!!,"Attention Valets!!!! If you are first on shift tonight, please do not forget to do the on time check in (602) 234-9050 and complete your paperwork. If you are having issues with the call in service, please text MOD immediately. 
-Kevin",Test Admin,false,false,0
ObjectId(5ad133ce06ba24ba66080323),Video for Cohn,https://youtu.be/h3ovpiZjDRg,Test Admin,false,false,0
ObjectId(5ad1344006ba24ba66080326),Roka Video,https://www.youtube.com/watch?v=daoWAnmSQ7Y,Test Admin,false,false,0
ObjectId(5ad134c006ba24ba6608032b),Video for Southbridge,https://youtu.be/AnukyKOnvvQ,Test Admin,false,false,0
ObjectId(5ad134c306ba24ba6608032e),Video for Southbridge,https://youtu.be/AnukyKOnvvQ,Test Admin,false,false,0
ObjectId(5ad5319a93b7701ec8ad7c53),Employee Meeting,Good evening valets! Please remember that our mandatory employee meeting is tonight. We will be serving food starting at 6:00pm and the meeting will start sharply at 6:30pm. Please make sure you are on time and adjust accordingly with traffic. (1/2),Test Admin,false,false,0
ObjectId(5ad5328493b7701ec8ad7d1c),Employee Meeting pt. 2,"The meeting will be held at Jaycee Park-- 817 W 5th St. Tempe, Az 85281
Please bring tennis shoes, athletic clothes, and water. Thank you! (2/2)
DO NOT RESPOND TO THIS NUMBER",Test Admin,true,false,0
ObjectId(5ad558a993b7701ec8ad7de5),Test,Text,Test Admin,false,false,0
ObjectId(5ad64a2c93b7701ec8ad80a7),Availability,Availability for the week of 4/29 is due this Wednesday at midnight. Failure to do so will result in limited scheduling and a write-up. Please do not respond to this number. Thanks,Test Admin,false,false,0
ObjectId(5ad6555993b7701ec8ad80e8),Camelback East Shops Video,https://youtu.be/kVEnaUaX6b4,Test Admin,false,false,0
ObjectId(5ad6560093b7701ec8ad80eb),Video for Kelly's,https://youtu.be/JkTAh6FUGPc,Test Admin,false,false,0
ObjectId(5ad6567593b7701ec8ad80ee),Video for Taco Guild,https://www.youtube.com/watch?v=WCr5pr0eAX0,Test Admin,false,false,0
ObjectId(5ad6578393b7701ec8ad80f1),Video for Dominick's,https://youtu.be/Egcf0uKnVvA,Test Admin,false,false,0
ObjectId(5ad6584393b7701ec8ad80f4),Reminder,"Attention Valets!!!! If you are first on shift tonight, please do not forget to do the on time check in (602) 234-9050 and complete your paperwork. If you are having issues with the call in service, please text MOD immediately. 
-Kevin",Test Admin,false,false,0
ObjectId(5ad79a47048a1f58467f5d4d),East Shops Vid,https://youtu.be/kVEnaUaX6b4,Test Admin,true,false,0
ObjectId(5ad7d33b7fbd9f76539f99cc),Call-in reminder,"Good evening! Please remember to do your on time check-in. If you are going to be late, please contact MOD. Also, please remember to be handing out airport cards. If you need more, please let me know via the MOD line. TY

DO NOT RESPOND TO THIS TEXT",Test Admin,true,false,0
ObjectId(5ad7d4b37fbd9f76539f99d3),Good evening 4/18,"Good evening valets! Please remember to be handing out airport cards, unless you are at Steak 44 or Dominick's. If you need more airport cards, please contact MOD and we will bring you more. Keep up the good work! Call MOD if you need anything! TY",Test Admin,true,false,0
ObjectId(5ad90b2911cf37e4ad993ce8),Detailing Business,Do you or anyone you know run a car detailing business?,Test Admin,false,true,0
ObjectId(5ad97e4ad04ffccd60d8893b),Signature,Testing,Test Admin,true,false,0
ObjectId(5ad97f32d04ffccd60d88950),Signature,"What do you guys think of the signature?  No need to type it, it comes up automatically.",Test Admin,true,false,0
ObjectId(5ada501bc9118485c4a323f5),4/20 opening,"Good evening valets! Please remember to do your on time check-in. It must be done on time or it will be late. If you are at an account that requires lot tracking, please make sure this is completed. Write-ups will be issued if these are not done.",Test Admin,true,false,0
ObjectId(5ada54f9c9118485c4a32424),4/20 valets,"Good evening valets! Today is a little known holiday... National Look A Like Day! Hope you are all looking alike tonight! Let us know if you need any shorts, shirts, hats, nametags, or keys. Thank you!",Test Admin,true,false,0
ObjectId(5ada5be8c9118485c4a32443),Reminder,"At the beginning of your shift, please pick up the card reader from the hostess and make sure sure the closer returns it. 
https://youtu.be/9ODkJWdZ7TA",Test Admin,false,true,0
ObjectId(5ada5c84c9118485c4a32446),Reminder,"At the beginning of your shift, please pick up the card reader from the hostess and make sure sure the closer returns it. 
https://youtu.be/9ODkJWdZ7TA",Test Admin,false,false,0
ObjectId(5ada66d4c9118485c4a3244a),Remember to check for damage,https://www.youtube.com/watch?v=HQDHFmIlEgM,Test Admin,false,false,0
ObjectId(5ade180cf1a187a843d17ada),Hey,You get this sucka,Test Admin,true,false,0
ObjectId(5ade4229f1a187a843d17b48),4/23 Key reminder,"Good afternoon valets! Please make sure you have your key before your shift. If you need one, please contact MOD so we can get you one. We have had to fix too many podiums because of forgotten keys. Thank you and I will see you out there! - Joshua",Test Admin,true,false,0
ObjectId(5adfc405787622ff16cf2634),Venmo,"Quest is still handling the Venmo for deposits, but the handle has changed to @EpicValet  Please start using this immediately.  Thank you.",Test Admin,false,false,0
ObjectId(5ae0be4b787622ff16cf271f),Availability,Availability for the week of 4/6 is due this Wednesday at midnight. Failure to do so will result in limited scheduling and a write-up. Thanks,Test Admin,true,false,0
ObjectId(5ae0c201787622ff16cf276a),Video for Mortons,https://youtu.be/SmJn-PJ9-ok,Test Admin,false,false,0
ObjectId(5ae0c239787622ff16cf276f),Video for Kelly's,https://youtu.be/JkTAh6FUGPc,Test Admin,false,false,0
ObjectId(5ae0c266787622ff16cf2772),Video for Franco's,https://www.youtube.com/watch?v=iQmFBQdYlIk&t=73s,Test Admin,false,false,0
ObjectId(5ae2485f787622ff16cf2795),CALL IN!!!!!!!!!,"Attention Valets!!!! If you are first on shift tonight, please do not forget to do the on time check in (602) 234-9050 and complete your paperwork. If you are having issues with the call in service, please text MOD immediately. 
-Kevin",Test Admin,false,false,0
ObjectId(5ae643babc744a6ec64fdbfd),Call in service,"Attention Valets!!!! If you are first on shift tonight, please do not forget to do the on time check in (602) 234-9050 and complete your paperwork. If you are having issues with the call in service, please text MOD immediately.",Test Admin,false,false,0
ObjectId(5ae8b406e034d1b00de98a93),Video for Kelly's/Clocktower,https://youtu.be/JkTAh6FUGPc,Test Admin,false,false,0
ObjectId(5ae8b440e034d1b00de98a96),Video for Taco Guild,https://www.youtube.com/watch?v=WCr5pr0eAX0,Test Admin,false,false,0
ObjectId(5ae8b754e034d1b00de98a99),Do your Availability!!!!!,This has gone out to 34 employees and is a growing problem. Availability for the week of 5/13 is due this Wednesday at midnight. Failure to do so will result in limited scheduling and a write-up. Thanks,Test Admin,true,false,0
ObjectId(5ae8cbdce034d1b00de98ade),McCormick,"Kyle Van Arden is the account manager at the McCormick.
Tyler Jackson is the AM morning supervisor at the McCormick. 

Pay is now $12/hr plus tips. 

Thanks",Test Admin,true,false,0
ObjectId(5ae8e350e034d1b00de98ba5),Remember to call in!!!!!!,"Attention Valets!!!! If you are first on shift tonight, please do not forget to do the on time check in (602) 234-9050 and complete your paperwork. If you are having issues with the call in service, please text MOD immediately.",Test Admin,false,false,0
ObjectId(5ae925a4e034d1b00de98cd5),Test,Testing John and kevin,Test Admin,false,true,0
ObjectId(5ae932aee034d1b00de98cda),Umbrellas and rain,Put your umbrellas down and make sure your tickets are in bags. It is raining and windy. Thank you,Test Admin,false,false,0
ObjectId(5ae932b0e034d1b00de98d3e),Umbrellas and rain,Put your umbrellas down and make sure your tickets are in bags. It is raining and windy. Thank you,Test Admin,false,false,0
ObjectId(5aea3a3b9b02f2c478039e0c),On-Time Call-In,Please remember to do your on-time call-in when you arrive to your shift this evening. Thank you and have a good day!,Test Admin,false,false,0
ObjectId(5aec70ebc1e0b94bcaa988e1),Video for Wandering Tortoise,https://youtu.be/LQZRz69dGY4,Test Admin,false,false,0
ObjectId(5aec71aac1e0b94bcaa988e4),Video for Fleming's Chandler,https://youtu.be/WictrardR1A,Test Admin,false,false,0
ObjectId(5aec71d8c1e0b94bcaa988e7),Video for Fleming's Peoria,https://youtu.be/kGYOqXHiDj4,Test Admin,false,false,0
ObjectId(5af0dafc9c5cd439b3127863),Reminder 5/7,Good evening valets! This is your friendly reminder to do the on-time call in.  Also please bring lots of water and stay hydrated. The temp is warm today. Keep up the good work and contact MOD with any issues/needs. Thank you -- Joshua,Test Admin,true,false,0
ObjectId(5af0dc409c5cd439b312786e),Water reminder,Good evening! Please remember to bring lots of water this evening to your shifts. Its been warm today so please make sure you are staying hydrated! Keep up the good work and I will see you out there! - Joshua,Test Admin,true,false,0
ObjectId(5af349b79c5cd439b31278a6),Availability,Availability for the week of 5/20 is due tonight at midnight. Failure to do so will result in limited scheduling and a write-up. Thanks,Test Admin,false,true,0
ObjectId(5af349b89c5cd439b31278bd),Availability,Availability for the week of 5/20 is due tonight at midnight. Failure to do so will result in limited scheduling and a write-up. Thanks,Test Admin,true,true,0
ObjectId(5af4b6de9c5cd439b3127976),On time check in,"Good evening valets! Please do not forget to do your on-time check-in. If it is late or missed you will be written up. If you are going to be late, please contact MOD asap. Thank you!",Test Admin,false,false,0
ObjectId(5af5f1fe63a4c134b712f70f),East Shops vid,"Camelback East Shops training video
https://youtu.be/kVEnaUaX6b4",Test Admin,false,false,0
ObjectId(5af5f23e63a4c134b712f712),Franco's vid,"Franco's training video
https://www.youtube.com/watch?v=iQmFBQdYlIk&t=73s",Test Admin,false,false,0
ObjectId(5af5f2d363a4c134b712f715),Garage vid,"Galleria Garage training video
https://youtu.be/N1r_8JL1l4k",Test Admin,false,false,0
ObjectId(5af9ff66d578c8cf7fbe2105),Company handbood,We have an updated company handbook that we need all employees to read and sign off that they have read.  Please complete as soon as reasonable.  The company id is EpicValet and the password is 071998.  http://www.myhandbookonline.com/EpicValet,Test Admin,false,false,0
ObjectId(5af9ffcbd578c8cf7fbe2108),Company Handbook,We have an updated company handbook that we need all employees to read and sign off that they have read.  Please complete as soon as reasonable.  The company id is EpicValet and the password is 071998.  http://www.myhandbookonline.com/EpicValet,Test Admin,false,false,0
ObjectId(5afa034fd578c8cf7fbe21e9),Reminder!!!,"Attention Valets!!!! If you are first on shift tonight, please do not forget to do the on time check in (602) 234-9050 and complete your paperwork. If you are having issues with the call in service, please text MOD immediately. 
-Kevin",Test Admin,false,false,0
ObjectId(5afa0351d578c8cf7fbe21f4),Reminder!!!,"Attention Valets!!!! If you are first on shift tonight, please do not forget to do the on time check in (602) 234-9050 and complete your paperwork. If you are having issues with the call in service, please text MOD immediately. 
-Kevin",Test Admin,false,false,0
ObjectId(5afa1321d578c8cf7fbe21ff),Reminder,"At the beginning of your shift, please sign in/out any keys/key cards that you may take. If you do not sign them in/out and they go missing, you will be responsible for finding them or the replacement charge that comes with it. Thanks",Test Admin,false,false,0
ObjectId(5afa1343d578c8cf7fbe2206),Reminder,"At the beginning of your shift, please sign in/out any keys/key cards that you may take. If you do not sign them in/out and they go missing, you will be responsible for finding them or the replacement charge that comes with it. Thanks",Test Admin,false,false,0
ObjectId(5afa138fd578c8cf7fbe220b),Reminder,Please speak with management before dropping keys or cutting early at Camelback East Shops. Thanks,Test Admin,false,false,0
ObjectId(5afa1466d578c8cf7fbe2210),Reminder,"Please get the reservations from the host when you arrive. Also, do not forget to fill up the ice chest with ice and water. The podium is to go in the middle of the drive until 7:30pm. Contact MOD before cutting anyone! Thanks",Test Admin,false,false,0
ObjectId(5afa1469d578c8cf7fbe2213),Reminder,"Please get the reservations from the host when you arrive. Also, do not forget to fill up the ice chest with ice and water. The podium is to go in the middle of the drive until 7:30pm. Contact MOD before cutting anyone! Thanks",Test Admin,false,false,0
ObjectId(5afa149dd578c8cf7fbe2216),Reminder,"At the beginning of your shift, please pick up the card reader from the hostess and make sure sure the closer returns it.",Test Admin,false,false,0
ObjectId(5afa150cd578c8cf7fbe221b),Reminder,"At Taco Guild going forward, we only have 10 spots now on the east part of the lot and we have to park cars on 5th street for overflow. The East spots that are against 7th street are the 10 spots we have up front. Please check with TG management.",Test Admin,true,false,0
ObjectId(5afb4ac2a7710ebc523d9192),On time check-in,"Good afternoon! Please remember to do your on-time check-in! If you are going to be late, please contact management. Please make sure you are bringing and drinking lots of water with you! Let me know if you need any uniforms. Thank you - Joshua",Test Admin,true,false,0
ObjectId(5afb4b86a7710ebc523d91a1),5/15,Good evening valets! Please remember to be drinking lots of water tonight. If you have any needs (such as uniforms) please let me know. Please let me know if you are going to be late as well. Thank you! - Joshua,Test Admin,false,false,0
ObjectId(5afc4c68dd281f6b6e27f274),Morton's Training Video,https://youtu.be/SmJn-PJ9-ok,Test Admin,false,false,0
ObjectId(5afc4da0dd281f6b6e27f277),Training Video for Kelly's,https://youtu.be/JkTAh6FUGPc,Test Admin,false,false,0
ObjectId(5afc4dd0dd281f6b6e27f27a),Franco's Training Video,https://www.youtube.com/watch?v=iQmFBQdYlIk&t=73s,Test Admin,false,false,0
ObjectId(5afc5cf2dd281f6b6e27f27d),Availability,Availability for the week of 5/27 is due this Wednesday at midnight. Failure to do so will result in limited scheduling and a write-up. Thanks,Test Admin,false,false,0
ObjectId(5afdd0eadd281f6b6e27f35f),Cash,Please make sure that we not keeping cash in the podiums. Please keep it on you or in your vehicle. The only time you may leave cash inside the podium is either in the lockbox (if the stand has it) and is locked or a valet is at the podium. Thank you,Test Admin,false,false,0
ObjectId(5afdf768dd281f6b6e27f448),Locking Cars,Please make sure you are locking every vehicle you park. We have gotten complaints from customers and an important account. Leaving a vehicle unlocked will result in the whole shift getting written up. Thank you!,Test Admin,true,false,0
ObjectId(5aff4536dd281f6b6e27f5a8),On Time Check In,"Good afternoon valets! Keep up the good work! Please remember to do the on time check in when you arrive on shift! If you are going to be late, please contact MOD. Please remind those who you are working with to lock doors and put windows up. Ty",Test Admin,true,false,0
ObjectId(5aff470cdd281f6b6e27f5cb),5/18,"Good afternoon valets! Please make sure that you are bringing water and arriving to shift on time. As a friendly reminder, all doors need to be locked and windows up. Failure to do so will result in write-ups. Thank you",Test Admin,true,false,0
ObjectId(5b00adc9dd281f6b6e27f5f2),Reminder 5/19,Good evening valets! This is your friendly reminder to do your on time check in. Please remember to lock cars and checking damage. We will be writing the whole shift up if doors are unlocked and/or damage is not being checked. Thank you!,Test Admin,true,false,0
ObjectId(5b05e83397e7a40f400d171b),On Time Reminder,"Good evening valets! Keep up the good work. Please make sure we arriving on time and calling the on time check in. If you have any uniform needs, please let me know asap so I can get them for you this evening. Thank you!",Test Admin,true,false,0
ObjectId(5b0619a797e7a40f400d1728),Availability,Your availability for the week of June 3rd is due tonight at midnight. Failure to do so will result in a write-up and less favorable shifts. Please complete this as soon as you can. Thank you,Test Admin,true,false,0
ObjectId(5b0619ab97e7a40f400d175b),Availability,Your availability for the week of June 3rd is due tonight at midnight. Failure to do so will result in a write-up and less favorable shifts. Please complete this as soon as you can. Thank you,Test Admin,true,true,0
ObjectId(5b0c2ab4216b21161d787427),Schedule,The schedule for the week of June 3rd will not be final until Tuesday at 11:59 pm. Please contact Marks with any questions. Thank you,Test Admin,false,true,0
ObjectId(5b0ef3c9216b21161d7875c8),Attention!,"Good afternoon valets! Although summer may be coming up, we still need to be providing the best customer service. Please open doors for all guests and customers. Regardless if they valet or uber. (1/2)",Test Admin,true,false,0
ObjectId(5b0ef668216b21161d7875fd),Attention,"Please smile and greet all guests. Please get the names of all customers. This will result in a better customer service, in turn making you more money. Thank you - Joshua (2/2)",Test Admin,true,false,0
ObjectId(5b11bca6216b21161d787653),Clocking in and out,"All employees are required to clock in & out with the ADP app. Most are doing this already. We will use ADP until we move to the new website. If you having an issue with the ADP app, contact Quest Wolfe.  Failure will result in write-ups. Thank you.",Test Admin,false,true,0
ObjectId(5b11c9f9216b21161d78776f),6/1 shift reminder,"Good afternoon valets! Keep up the good work. Plz make sure we are drinking lots of water. Plz, remember to open all doors every time and getting the customers names. Plz do not cut/leave from a shift until you've spoken to mod. Thank you! - JT & BF",Test Admin,true,true,0
ObjectId(5b15cc24216b21161d7877c2),On-time Check-In`,"Good evening guys,

Just a friendly reminder to make sure you're doing on-time check-in and also to text in ticket control. These both have improved recently and I want to say thank you for all of the hard work!

Have a good shift,
Jordan",Test Admin,true,false,0
ObjectId(5b1702088117817092f257be),Grey Shirts,"Good afternoon valets! If you do not regularly work a residential account, please return your grey shirt back to a residential account (excluding the McCormick). Thank you!",Test Admin,false,true,0
ObjectId(5b1adce39b78cddcb81024eb),Significant Other @ Accounts,"Hello guys and girls,
An issue has recently come to our attention. While on shift, It is inappropriate to have either friends, family or your significant other with you for any extended amount of time. 
Thanks for understanding,
Jordan",Test Admin,false,true,0
ObjectId(5b1b07959b78cddcb8102652),Schedule,"The schedule for the week of the 17th will not be official until after Monday, June 11th at 12:00am. If you have any questions, please contact MOD. Thanks
-Kevin",Test Admin,false,true,0
ObjectId(5b1e03eb9b78cddcb8102adf),Test,Test,Test Admin,false,true,0
ObjectId(5b2172e7943b92d74ea86385),Time Off,"Epic has reached its limit for the number of employees that can have time off around the 4th of July. Time off is no longer being granted for July 3rd -7th. Please contact the office with any questions.

Thank you,

Marks",Test Admin,false,true,0
ObjectId(5b217c14943b92d74ea86603),Welcome!,"Good afternoon gentleman! Welcome to Epic Valet! You have been added into our system. So please go to employees.epicvalet.com   
If you want to work, Spencer B is looking to give his shift away for Sunday night",Test Admin,false,false,0
ObjectId(5b21986a943b92d74ea8660a),Customer Service Standards,"Good afternoon guys,

Out secret shoppers have had really good feedback lately! Please make sure you are grabbing doors, being attentive and getting customer names every time. You guys can do it and it will increase tips!

Thanks,
Jordan",Test Admin,false,true,0
ObjectId(5b22f34109f676e2b4068325),Locking cars and filling out tickets,"Attention: We have been slacking at this lately but we need to be on top of filling out our tickets completely, checking for damage, and locking the cars. Make sure we are on top of this. Thanks!",Test Admin,false,true,0
ObjectId(5b241a80b33fea7eb2c2fb9b),Rain!,"Good afternoon! Please make sure that tickets and binders are in bags. Please watch your umbrellas with the wind. If you have personal umbrellas, please bring those as well. Thank you! - Joshua",Test Admin,false,false,0
ObjectId(5b28222ab33fea7eb2c3072d),Availability,"The schedule for the week of 6/24-6/30 has been updated. Please remember to update your availability on the employee website. It is important so that we know when to schedule you and so that I don't have manually enter it for you. 
Thanks,
Jordan",Test Admin,false,false,0
ObjectId(5b2adb1ac920bd10c76a6c20),Lot Tracking,We've been slacking on completing Lot Tracking. Managers have been instructed to ensure it is done. Lot tracking should be completed as soon as you get on shift with your other paperwork. Non-completion will result in non-favorable scheduling. Thanks,Test Admin,false,true,0
ObjectId(5b2c0d8244bbb710c3ab9959),Availability,"Starting effective immediately, all employees will be required to complete their availability on both the current site and the new site.  This is for the week of July 8th moving forward.  Thank you.",Test Admin,false,true,0
ObjectId(5b2c0d8644bbb710c3ab9a42),Availability,"Starting effective immediately, all employees will be required to complete their availability on both the current site and the new site.  This is for the week of July 8th moving forward.  Thank you.",Test Admin,false,true,0
ObjectId(5b2c105444bbb710c3ab9b39),New website info,"The new website is az.epicvalet.com
Put your email address you gave at new hire and select forgot password.
A new password will be emailed, use that to login.
Click on the gear wheel under your name to change your password.",Test Admin,true,true,0
ObjectId(5b2c131644bbb710c3ab9c3c),New Website,"The new site is in the final phase of development. Please reference the current site for the official schedule. We would love to have feedback of thoughts, errors, or anything that you feel can be improved. We think you will really like the new site!",Test Admin,false,true,0
ObjectId(5b2d60506c0024168ac2e92a),Reminder!,"Good afternoon! Today is expected to be fairly hot so please make sure that you bring lots of water. If any umbrellas need to be fixed, please let us know so we can get those fixed for you. Keep up the good work and we will see you out there! - Josh",Test Admin,true,true,0
ObjectId(5b2edef3dfc3452572a3618b),Closing McCormick Today,"Hi guys,

One of the guys working the McCormick had a family friend pass away in a car accident this morning and he has been trying to get his shift covered so he can go be with the family. Would any of you want to come in and close mccormick",Test Admin,false,false,0
ObjectId(5b36883c2e2bcde395eb7aac),Time Off Requests,Please remember that we are still in the testing phase for our website. All time off requests must be sent through Marks via the old site. Any time off requests sent in on our new site will not be approved.,Test Admin,false,false,0
ObjectId(5b3fc4a43f4682d28b93da00),Schedule,"The schedule for the week of the 15th will not be complete until Tuesday, July 10th at 12:01am.",Test Admin,false,false,0
ObjectId(5b43e709126c9ead6ae0bf5b),Weather,Good afternoon valets! Please note that there is some wind tonight so there may be times when the umbrellas will come down. Please text the MOD line if you are needing any equipment or uniforms. Thank you! - Joshua,Test Admin,true,false,0
ObjectId(5b4524e153d4b0f590eca777),Monsoon Season,"Good afternoon ladies and gentlemen! Monsoon season is in full effect. Please make sure that at the end of every shift we are putting tickets, binders, and anything else in the ziplock bags. If you need more please text MOD. Thank you!",Test Admin,true,false,0
ObjectId(5b47aed753d4b0f590ecaaeb),Testing,Hey are you getting this fool?,Test Admin,false,false,0
ObjectId(5b49260d0d927a9534592228),7/13,Good evening friends! Keep up the good work! Make sure you are checking for damage and marking them correctly on the tickets. Please make sure that you contact MOD before leaving. Looking forward to seeing you out there! - JT & KB,Test Admin,true,false,0
ObjectId(5b57c60b71f89c01b2c6df5a),New Website,"We are excited to announce that we are moving to our new website on August 1st. The site address is az.epicvalet.com You all have access to check it out now. Starting the 1st, you will begin to use the site for clocking in and out. Quest is the lead",Test Admin,false,false,0
ObjectId(5b57c68571f89c01b2c6e02f),New Website pt 2,"on this project. If you have any feedback/issues, please reach out to him. We feel this will make our company more efficient and the user experience much better for you. Please be patient and help us work through any issues on rollout. Let's be Epic!",Test Admin,false,false,0
ObjectId(5b5891702373f11bbd9d9a77),Availability,Availability for the week of 8/5 is due this Wednesday at midnight. Failure to do so will result in limited scheduling and a write-up. Please do availability on the new website (az.epicvalet.com) from now on.,Test Admin,false,true,0
ObjectId(5b5891e12373f11bbd9d9b36),availability #2,"Please keep in mind that both sites are active until August 5th. Please refer to the old site for all scheduling until the 5th but availability is to be done on the new site (az.epicvalet.com).
Thanks,
-Kevin",Test Admin,false,true,0
ObjectId(5b5b5e673cfb924b1a8f757b),Shift in Vegas tonight,We wanted to see if any employees happen to be in Las Vegas this evening that would be interested in working a shift.  It is at Fogo de Chao at 4:45.  Please let MOD if you are. Thanks.,Test Admin,true,false,0
ObjectId(5b5f62703cfb924b1a8f7c05),Stan the man,"Stan G. has returned to Epic valet! For those who do not know him, he has been with Epic over the past 5.5 years. He has returned to a management position in the field. Please give him the respect that he deserves as a manager/introduce yourself.",Test Admin,false,false,0
ObjectId(5b60a55b04f42315027dc251),Texting in ticket control,"Hi Guys,
We have had a lot of ticket controls not reported lately. This needs to be texted into the payroll line with: employee #, Account worked, date, total number of tickets to start shift, total tickets @ end of shift; at the end of every shift.",Test Admin,false,false,0
ObjectId(5b60c48504f42315027dc2b8),Hello,Testing the toll free number,Test Admin,false,false,0
ObjectId(5b60c59d04f42315027dc2bb),Odysea AM Shift Tomorrow,"If anyone is looking for hours we have an Odysea shift available tomorrow, Wednesday August 1st. The shift is from 7:30AM-1:00PM. If you would like to work it please reach out to the MOD as soon as possible.",Test Admin,false,false,0
ObjectId(5b60e4f36b27c66ab29e4eb5),7/31,"Good afternoon valets! Hope you all enjoyed the storm yesterday! Because it is monsoon, please keep tickets and paperwork in the ziplock bags. If you need anything, please let me know! Remember to drink lots of water! - Joshua",Test Admin,true,false,0
ObjectId(5b612dd06b27c66ab29e4efb),New website,"Reminder, we are launching the new website tomorrow. You will need to clock in on the new site starting tomorrow also. Hope you are excited!  Management is excited!",Test Admin,false,false,0
ObjectId(5b61f21f573a32372035d231),Employee Site Video,"Good morning Epic! Today is the day we have all been waiting for! Our website is officially live! Please watch this video for a quick overview of our new site.
https://youtu.be/YIl7aqPQPzw
Thank you for your patience through this process! - Epic",Test Admin,true,false,0
ObjectId(5b61f28f573a32372035d361),Employee Site Video,"Good morning Epic! Today is the day we have all been waiting for! Our website is officially live! Please watch this video for a quick overview of our new site.
https://youtu.be/YIl7aqPQPzw
Thank you for your patience through this process! - Epic",Test Admin,true,true,0
ObjectId(5b61f9bf573a32372035d37b),Employee Site Video,Good morning Epic! Today is the day we have all been waiting for! Our website is officially live! Please watch this video for a quick overview of our new site. https://youtu.be/YIl7aqPQPzw Thank you for your patience through this process! - Epic,Test Admin,true,false,0
ObjectId(5b61fb7f573a32372035d37e),test,test,Test Admin,false,true,0
ObjectId(5b637e54ea054e9f25716e0c),Cody Lawson,Good afternoon valets! Cody is back! Please welcome him back as you see him out on MOD shifts. Please make sure you save his number,Test Admin,false,true,0
ObjectId(5b637f93ea054e9f25716efd),Test,Learning the system.,Test Admin,false,true,0
ObjectId(5b649ac2e1028ed04f79f097),Shift Acknowledgement,"On the new website, there is a tab for shift acknowledgement. Please click off on all of your shifts. This is how we know you are aware of your upcoming shifts. Please log in and get this taken care of by 2pm today. Thanks
-Kevin",Test Admin,false,false,0
ObjectId(5b652126e1028ed04f79f25a),Test,"If you receive this text, please text mod",Test Admin,false,false,0
ObjectId(5b6617dde1028ed04f79f6e0),8/4,"Good afternoon valets! Remember to clock in/out on the new website. If you are having issues, please let us know ASAP. Looking forward to seeing you all out there! Make sure we are drinking lots of water and staying hydrated!",Test Admin,true,false,0
ObjectId(5b663e70e1028ed04f79f740),Trade Board,"Thank you for using the new site and the Trade Board for shift trades. We have had some success and some hiccups with it. If you are trading a shift for the next few weeks, please use the trade board and contact MOD while we resolve these issues.",Test Admin,false,false,0
ObjectId(5b676590e1028ed04f79f8b9),New website,Good morning Epic! Today is the day we have all been waiting for! Our website is officially live! Please watch this video for a quick overview of our new site. https://youtu.be/YIl7aqPQPzw Thank you for your patience through this process! - Epic,Test Admin,true,false,0
ObjectId(5b68d1e3e1028ed04f79f94f),Shift acknowledgements,Please log into the website and acknowledge your shifts for the week.  Call the MOD if you have any questions.,Test Admin,false,false,0
ObjectId(5b6a0340b8d4846ef3877545),Good afternoon 8/7,"Good afternoon valets! Keep up the good work! Please continue to clock in and out on the website. If you are experiencing any issues at all, please contact the MOD. We really appreciate your patience as we're growing together! - Joshua",Test Admin,true,false,0
ObjectId(5b6a0eb5b8d4846ef387758b),Availability 8/19,"Availability for the week of August 19th is due this Wednesday by midnight. If it is not completed, you will be written up and your schedule will be non-favorable. Thanks",Test Admin,false,false,0
ObjectId(5b6c787e3abb251f5429bd00),401K password,"There is a new password for August to enroll in the 401k plan.  The password is 2UJUWE.  The link to register is www.mykplan.com  Just a little bit adds up to a lot after some time.  Plan for your future!  If you have questions, please contact Quest.",Test Admin,false,false,0
ObjectId(5b6f5fb0c712949e64caa50f),Good Afternoon!,Good afternoon valets! We could have rain again this evening. Please be prepared. Please make sure equipment is taken care of even when you are closing. Keep up the good work guys! Let us know if you need anything - Josh & Jordan,Test Admin,true,false,0
ObjectId(5b6f7b1dc712949e64caa5b8),Ticket control,"Great question by a valet tonight.  The question was if they had to wait until clocking out to do ticket control.  The answer is no, you can complete the ticket control once you know it is not going to change.  This will save you time when closing,",Test Admin,false,false,0
ObjectId(5b70a4b9c712949e64caa705),Sunday Funday,"Good afternoon valets! It's another warm day so make sure you are bringing lots of water and staying hydrated! For those middle children out there, today is national middle child day. Celebrate and be merry! ;) - JT",Test Admin,true,false,0
ObjectId(5b71b40774f6354a4318ce74),Dominick's shift tonight,"If anyone is looking to pick up a shift tonight, we have a Dominick's shift that is available at 5pm. Please text MOD if would like to pick up this shift.",Test Admin,false,false,0
ObjectId(5b71f1d174f6354a4318cf4c),Sunny with a chance of rain,"Good afternoon valets! We are still experiencing monsoon storms! Please make sure we are properly taking care of equipment. Your phone may say sun, but don't let that fool ya. Let me know if you are in need of any bags. - JT",Test Admin,true,false,0
ObjectId(5b72ee97b1f90f2c1621f43c),Availability 8/26,Availability for the week of 8/26 is due this Wednesday at midnight. Failure to do so will result in suspension for the week (you will not be scheduled) and a write-up. Thanks,Test Admin,true,false,0
ObjectId(5b73051cb1f90f2c1621f4ad),Steak 44,"Effective Immediately the discount offered to employees for Steak 44 and Dominick's is discontinued. If you have any questions, please contact our corporate office at (480) 874-1234.

Thanks",Test Admin,false,false,0
ObjectId(5b733c30b1f90f2c1621f5a9),Shift Acknowledgement,You have not done your shift acknowledgement. Please sign into the site and get this done ASAP. Thanks,Test Admin,true,false,0
ObjectId(5b735bf9b1f90f2c1621f5d3),Steak 44 shift tonight,Anyone looking to pick up a steak 44 shift tonight at 515? Text Jordan if interested,Test Admin,false,false,0
ObjectId(5b746ab776553243a4c9d8da),Availability 8/26,"Availability for the week of 8/26 is due tonight by midnight. Failure to do so will result in a write up and no schedule for that week. 
Thanks",Test Admin,false,false,0
ObjectId(5b758b98deddfda02e95524f),Test 8/16,Test 8/16,Test Admin,false,false,0
ObjectId(5b75dba2deddfda02e9552bc),Taco Guild Tonight,"We have a Taco guild shift available tonight, would anyone like to pick it up at 4:30pm? Please contact MOD if you would like it.",Test Admin,true,false,0
ObjectId(5b78383e3ea1763520bcc354),Diego pops,We need a valet at Diego pops tonight at 4:45pm. First one to text MOD will be granted the shift. Thanks,Test Admin,false,false,0
ObjectId(5b7841b73ea1763520bcc41a),Doing the Right Thing,"Good morning Team! We recently had to fire 3 employees for stealing. This is an action that will not be tolerated. We have deployed secret shoppers to help with this issue.  If you have any questions on policy, please talk to a manager. Be Epic!",Test Admin,false,false,0
ObjectId(5b784f403ea1763520bcc4ce),Morton's,Diego pops has been covered. We are looking for coverage to Morton's tonight at 4:30. First come first serve.,Test Admin,false,false,0
ObjectId(5b7e07c980261699251c76cd),Conduct @ The Vi,"Valets are never to ride in or drive a vehicle while a resident is in the vehicle. This is a risk that neither the property or our company wants. Even if the resident asks you to, please never ride in their vehicle or drive them in their vehicle. Thx",Test Admin,false,false,0
ObjectId(5b8092d5c8ad5da5ed15b88d),Shift Acknowledgement,This is a reminder to click off on your shift acknowledgement for your up coming shifts. This needs to be done on a regular basis at least 72 hours before your shifts. Starting September 7th there will be write-ups given for failure to complete this.,Test Admin,true,false,0
ObjectId(5b847a77ca5f4f3ffc4fbe84),Shift Acknowledgement,"Some employees have consistently not done their shift acknowledgement. This is how management knows that you are aware and will be at your shift. Failure to do so will result in write ups, revoking of shifts and unfavorable schedules. Thanks",Test Admin,true,false,0
ObjectId(5b85d30eb9b0831472a13029),Shift acknowledgement,We've made it easier to acknowledge shifts. You can still use the same page. Now it can be done from your schedule. Just click on the shift and hit the acknowledge button. Your shift will show a check mark if it has been acknowledged. You're Epic!!,Test Admin,false,false,0
ObjectId(5b89bf06d26fc1f38782eeb7),On time call in,Epic has cancelled our On-Time call in service. Our website has been running smoothly and it is time for us to make the change. Please make sure you are clocking in/out on the new website as we have been and make sure you are on time to your shifts.,Test Admin,false,false,0
ObjectId(5b89c693d26fc1f38782ef75),Shift Acknowledgement Reminder,This is a reminder to click off on your shift acknowledgement for this up coming week. Have a great weekend.,Test Admin,true,false,0
ObjectId(5b8ee2b265b9f3ccf60f79c8),Steak 44 Tonight at 5:30,Steak 44 at 5:30 up for grabs tonight. First person to text MOD gets it.,Test Admin,false,false,0
ObjectId(5b8eff3f65b9f3ccf60f7ae7),9/4,Good afternoon valets! Hope you enjoyed your Labor day weekend! Back to the grind today! Please make sure you are clocking in on time. If you have any questions or concerns please contact MOD! Looking forward to seeing you all again! - Joshua,Test Admin,true,true,0
ObjectId(5b8f1a9265b9f3ccf60f7b2d),Epic Fantasy League,Good afternoon! We still have one open spot in Epic's fantasy football league! It is a $50 buy in. We will be drafting tomorrow at 4p at the office. You must be present in order to participate in the league. Please contact Jordan if interested!,Test Admin,false,false,0
ObjectId(5b9320a208da25311cdf72b6),Attention,Good evening valets! All cuts must be approved by management. This also go for closing a shift. You may contact Cody or Joshua with approval. Thank you! See you guys out there,Test Admin,true,false,0
ObjectId(5b9772de08da25311cdf75c2),Kestin calling out for Mccormick Tuesday September 11 AM shift,Kestin’s sprained ankle is so bad he cannot go into his morning Mccormick shift today.,Test Admin,true,false,0
ObjectId(5b9932be16959d06a136cc4b),Mandatory company meeting,"Epic will be holding a mandatory Employee meeting the evening of October 7th.  If you cannot make it, you must get permission from management to be excused. Food, fun and games included. More details to come. Thanks for being EPIC!!!!",Test Admin,true,false,0
ObjectId(5ba17440a6757d260235c41a),Policy change,"New policy effective immediately:

If availability is not completed  3 times over a 4 month period, it will serve as grounds for termination. 

Availability is due Wednesday by midnight 2 weeks prior to the schedule. Contact MOD with any concerns.",Test Admin,true,false,0
ObjectId(5ba279e30c6fac32f210cba9),Taco Guild Tonight,"Good morning! We have a 4PM Taco Guild shift available tonight. If you are interested in picking it up, text the MOD line and we will get you set up. Thanks and have a good day!",Test Admin,false,true,0
ObjectId(5ba403427aa8cdb7105aa8f6),Mandatory Meeting,"Epic will be holding a mandatory Employee meeting the evening of Oct. 7th @ 6pm. If you cannot make it, you must get permission from management to be excused. Food, fun and games included. Location will be the Epic office. Thanks for being EPIC!!!!",Test Admin,true,false,0
ObjectId(5bac18093a9dbe9f4afab837),Time to step up!,anything,Test Admin,false,false,0
ObjectId(5bac194b3a9dbe9f4afab85f),Time to step up!,"We have a lot of shifts that need coverage! Starting from 9/28-10/6, we have at least one almost every day. Lots of private parties and restaurant shifts; Please text mod if you are looking to pick up a few shifts.",Test Admin,false,false,0
ObjectId(5bad17493fdee1ad4690a187),Employee Time Off Requests 1/2,If you are going out of town or need multiple days off in a row you must submit a time off request. Simply putting no on your availability/in the notes is insufficient. Time off requests are located on the top right of the availability page.,Test Admin,false,false,0
ObjectId(5bad18b43fdee1ad4690a244),Employee Time Off Requests 2/2,If you have any questions about how to submit a time off request please contact management. Not knowing how to request time off is not an excuse. Simply filling in no on your availability does not guarantee time off.,Test Admin,false,false,0
ObjectId(5bad6e853fdee1ad4690a4c0),weather,"We may have some inclement weather this weekend. Please make sure that all tickets/paperwork and binders are in the plastic bags and are safe from water. If you need another bag, please contact MOD. Thanks",Test Admin,true,false,0
ObjectId(5bae97f53fdee1ad4690a629),Employee Meeting Reminder,"Epic will be holding a mandatory meeting on Sunday, Oct. 7th @ 6pm. The meeting will be held at 136. S. 40th pl. Phoenix, 85034 (Epic office). If you are unable to attend, you must be excused by management. Food, games and fun included! Thanks",Test Admin,true,false,0
ObjectId(5bb2a9833fdee1ad4690abbf),Weather,"We may have some inclement weather this week. Please make sure that all tickets/paperwork and binders are in the plastic bags and are safe from water. If you need another bag, please contact MOD. Thanks",Test Admin,true,false,0
ObjectId(5bb694bf804fda36ae8cc866),Employee Meeting changes,"Our Employee meeting has changed dates. Due to inclement weather, our meeting has changed from Oct. 7th to October 21st @ 6pm. Location is at the Epic office. If you cannot make it, please get permission from management. Thanks",Test Admin,false,false,0
ObjectId(5bb7d28d5b3759741aed5a1d),Facial Hair & General Appearance,We have noticed and MODs will be on the look out for valets not in proper uniform or cleanly shaven. You must be cleanly shaven if you have not reached 6 months of employment with Epic. At that point facial hair is allowed with management approval.,Test Admin,false,false,0
ObjectId(5bb8274e5b3759741aed5b91),Urgently Need Shifts Picked Up!,"We urgently need the following shifts picked up! Willing to add a Steak 44 shift to your next schedule if you pick up one of these shifts. Please text MOD.
Sat 10/6 Gila River 2:30PM-10PM
Sat 10/6 Taco Guild 5:15PM
Sat 10/6 Francos 4:45PM",Test Admin,false,false,0
ObjectId(5bb8cbb93841cdbef065adfb),Urgent!,We still need coverage for Gila river arena today at 2:30 pm. Also a taco guild shift at 5:15. Gift cards will be available to the valets who pick them up. Thanks. Text MOD,Test Admin,false,false,0
ObjectId(5bbbab3eea474c8a1a3492cd),401K,"Who is ready to start saving some money?!  A little bit each check will add up over time.  Get enrolled today to start saving on your paycheck that comes Friday!  If you have questions or need help, please contact Quest.",Test Admin,false,false,0
ObjectId(5bbc05d8ea474c8a1a3493f9),Time off requests,"Good evening valets! Going forward,  all time off requests must be submitted 17 days off in advance. This includes partial and full time off requests. As a reminder comments in the availability is not a time off request. Please contact MOD w any Q's",Test Admin,true,false,0
ObjectId(5bbe8251171b9b1cc1467add),10/10,"Good evening valets! Keep up the good work! It's cooling off so enjoy the weather and keep working hard! As a reminder, please make sure we are completing the opening procedures on each shift. Any questions, please let me know. Thank you - JT",Test Admin,true,false,0
ObjectId(5bbf9c30e8d19787c69f0114),Medical Insurance,"We are going through our renewal process for Dec 1st renewal and need a census of our employees insurance status.  Send Quest a text with the option you have.  On your parents plan, on Access, on spouse plan, or no insurance.  TY for your response.",Test Admin,false,false,0
ObjectId(5bbfc1a88e43c742ffa639ab),Winter Attire,"Epic has winter attire available for purchase:
Hats: $12
Beanies: $10
Jackets: $29
Pants: $15
We are wearing shorts until further notice. Your outer most layer must be Epic attire.",Test Admin,false,false,0
ObjectId(5bc0f4eabb84afe06a4aba79),Dominicks 10/13,There will be no cuts made tomorrow night because they are having an event. We are sending two more valets to help with out bound.,Test Admin,true,true,0
ObjectId(5bc24541bb84afe06a4abb37),Weather,"This weather is expected to last all day and night! Please make sure that all tickets/paperwork and binders are in the plastic bags and are safe from water. If you need another bag, please contact MOD. Thanks",Test Admin,true,false,0
ObjectId(5bc268bc6ded35512c0cee5d),Travel time,Please give yourself extra travel time because of the weather and drive safe. Thanks.,Test Admin,false,false,0
ObjectId(5bc4eb08cefb02dbf2e0dc37),Schedule change,Slight schedule change to those of you working the Wandering Tortoise in the next week. The Start time has moved back 15 minutes so the start will now be 11:30 not 11:45am. Your schedules have been updated. Thanks,Test Admin,false,true,0
ObjectId(5bc51a875bcba7b938bb6184),Shift Acknowledgement,"You have not done your shift acknowledgement for this coming week. Failure to do so will result in write ups, revoking of shifts and unfavorable schedules. Thanks",Test Admin,false,false,0
ObjectId(5bca22cbfd5b9b3372a43c84),"Travel time, weather, meeting",The President is in town! Please allow extra travel time due to excessive traffic today. Please also be aware that it might storm this weekend and to give extra time for that as well. See you all at the meeting this Sunday @6pm. 136 S. 40th pl. 85034,Test Admin,false,false,0
ObjectId(5bca26f2fd5b9b3372a43d5b),Inclement weather,There is some rain in the forecast over the weekend in Vegas. Please allow for extra travel time and try to keep all tickets and paperwork in bags and dry. Thanks,Test Admin,false,false,0
ObjectId(5bcccabb6d7738eb20c3c801),Employee meeting,Reminder that we are having  our employee meeting today at 6pm.  We will see you all there at the Epic office! Contact MOD with any questions or concerns. Thanks!,Test Admin,false,false,0
ObjectId(5bcf9997529952d3559623e8),Weather,"Good afternoon valets! Lately, our weather has been surprising! There have been lots of clouds and rain in various areas of the valley. Please make sure we are always keeping our binders, tickets sq readers in ziplock bags! Need bags? Contact MOD",Test Admin,false,false,0
ObjectId(5bd385ea5edbce72876aab36),Damage check / Weekend cuts,"Remember to be checking every vehicle for damage. Also, before making any cuts on the weekends, you must contact MOD and get approval first. Thanks",Test Admin,false,false,0
ObjectId(5bd742855edbce72876aae23),Pants,"Epic will be switching from shorts to pants starting Sunday, November 4th. Pants will be available to pick up in the office for $15. 136 S. 40th pl. Phoenix, 85034",Test Admin,false,false,0
ObjectId(5bd7496c5edbce72876aaefb),Schedule week of the 4th,The schedule for the week of the 4th will not be official until tonight at midnight.  Thanks,Test Admin,false,false,0
ObjectId(5bd776e85edbce72876ab054),Good afternoon!,"Good afternoon valets! You have all been incredible lately! Keep up the good work! Please remember to arrive to shifts on time and clocking in. When you leave your shift, make sure you clock yourselves out! Thanks - Joshua",Test Admin,true,false,0
ObjectId(5bdb40e1fce4d506b28f2c7b),Winter attire,"Epic is switching over to pants for the winter starting this Sunday, November 4th.  Jackets, Pants, and other attire available for purchase at the office. Thanks",Test Admin,false,false,0
ObjectId(5be5b74550f4c0e09d47fe82),Hiring Push,"Hi guys, We are currently hiring and would love for you to refer some of your friends you feel would be a good fit with the company. If you know anyone who is looking for a job, please send them our way. They can apply either though epicvalet.com!",Test Admin,false,false,0
ObjectId(5be5b9d350f4c0e09d47fefe),Hiring Push,"Hi guys, We are currently hiring and would love for you to refer some of your friends you feel would be a good fit with the company. If you know anyone who is looking for a job, please send them our way. They can apply either though epicvalet.com!",Test Admin,false,false,0
ObjectId(5be5bdca50f4c0e09d47fffb),Employee Referals,"If you refer a potential employee and they stay on for at least 90 days, you will receive a $50 referral bonus. This promotion will not last long so get your friends to apply!",Test Admin,false,false,0
ObjectId(5beb346c748c2724b47bd67d),10/13,Good afternoon valets! It's starting to be cooler outside. If you would like to purchase a jacket or beanie you may. Jackets are $25 and beanies are $10. You may wear a white long sleeve shirt under your Epic shirt. See you out there! - Joshua,Test Admin,true,false,0
ObjectId(5beb6ada748c2724b47bd897),Paperwork,"Good evening Bobby! We have tried several times to reach out you, but we are still in need of your I9, W4, and A4. Please get that back to us. Thank you",Test Admin,false,false,0
ObjectId(5bed2cbafa81301d62de9685),Testing,testing 15/11/2018,Nita Kumari,true,true,0
ObjectId(5bed325efa81301d62de9696),Test,memo test,Nita Kumari,true,true,0
ObjectId(5bf1ab73dd697d05f6a88020),Screenshot,,Test Admin,true,true,0
ObjectId(5bf6a93ff45fa3d356d1a83e),TEST 22,TEST,Nita Kumari,false,true,0
ObjectId(5bf6a93ff45fa3d356d1a845),TEST 22,TEST,Nita Kumari,false,true,0
ObjectId(5bf6a940f45fa3d356d1a853),TEST 22,TEST,Nita Kumari,false,true,0
ObjectId(5bf6a941f45fa3d356d1a861),TEST 22,TEST,Nita Kumari,false,true,0
ObjectId(5bf6a940f45fa3d356d1a84c),TEST 22,TEST,Nita Kumari,false,true,0
ObjectId(5bf6a945f45fa3d356d1a87c),TEST 22,TEST,Nita Kumari,false,true,0
ObjectId(5bf6a942f45fa3d356d1a875),TEST 22,TEST,Nita Kumari,false,true,0
ObjectId(5bf6a941f45fa3d356d1a85a),TEST 22,TEST,Nita Kumari,false,true,0
ObjectId(5bf6a942f45fa3d356d1a86e),TEST 22,TEST,Nita Kumari,false,true,0
ObjectId(5bf6a946f45fa3d356d1a88f),TEST 22,TEST,Nita Kumari,false,true,0
ObjectId(5bf6a946f45fa3d356d1a896),TEST 22,TEST,Nita Kumari,false,true,0
ObjectId(5bf8a781d0df743c478c46f4),Schedule. Dec 2nd,"The schedule for the week of 12/2 will not be final until Tuesday at 12:01am.

Thanks",Test Admin,false,false,0
ObjectId(5bf8b242d0df743c478c486d),Schedule issue,The schedule for the week of 11/25 might have shifted a day on the employee end. Jordan and I will be sending screenshots to everyone. Please refer to the screenshot sent as your schedule for the next week. Reminder texts for shifts are correct.,Test Admin,false,false,0
ObjectId(5bf9cd85d0df743c478c4b2c),11/24,"Good afternoon valets! Hope you all had an awesome Thanksgiving! We are very thankful to have a crew like you working for us! Keep up the good work! Before cutting or leaving an account, please double check with MOD. Thank you! - JT",Test Admin,true,false,0
ObjectId(5bfd23875143af64b218448c),test27,2. Create New Group,Nita Kumari,false,true,0
ObjectId(5bfd240a04dce686b8072171),test nov 27,2. Create New Group,Nita Kumari,false,true,0
ObjectId(5bfd79be4f2ff046d51c0597),Events!,"Good morning Epic! Barrett Jackson and The Phoenix Open are just around the corner! We are currently recruiting for valets to help during these two events. Let your friends, family, or anyone else know and have them reach out to Josh! Thank you!",Test Admin,false,false,0
ObjectId(5bff843cc05c02ef73c6542b),test29,,Nita Kumari,false,true,0
ObjectId(5bff84afc05c02ef73c65457),test29,,Nita Kumari,false,true,0
ObjectId(5c003d7c14feb6a6f3712b6c),Weather,"Good afternoon valets! Rain is forecasted for tonight and the morning. It may not rain while you are on shift, but please make sure that tickets, binders, and equipment is in bags and stored properly. Thank you",Test Admin,true,false,0
ObjectId(5c01ab5594703e16e1343ec5),Tickets,Good evening everyone. Please make sure we are completely filling out the tickets and marking damage. We have been pretty good about this but keep up the good work!,Test Admin,true,false,0
ObjectId(5c06031118c85798fd1bc910),Schedule,,Nita Kumari,true,true,0
ObjectId(5c07622916747b4bd758322f),testtt,test,Nita Kumari,false,false,0
ObjectId(5c0763078255ed684136cff5),chknow,desccc,Nita Kumari,false,false,0
ObjectId(5c0766b08255ed684136cffe),sgfdgdfg,dfgdfg,Nita Kumari,false,false,0
ObjectId(5c07675f8255ed684136d003),tesssssssssss,hfghfgh,Nita Kumari,false,false,0
ObjectId(5c0769a88255ed684136d00a),zipfilerename,checking,Nita Kumari,true,false,0
ObjectId(5c0793bbb2c0131c6358204d),test 5dec,test,Nita Kumari,true,true,0
ObjectId(5c094bc1ae7cc19cd04f621b),Weather,"Good morning! We are experiencing some wet weather once again today and tomorrow. Please give yourself extra time for driving. If you are working a shift and you need zip lock bags, please let us know!  - Thank you!",Joshua Timmons,true,false,0
ObjectId(5c116b0cf1a488422dba6ec2),Barrett Jackson & Phoenix Open,"Hi there, we are quickly approaching the events! Epic does not limit overtime for these weeks so make sure and open up your availability so you can make some serious dough! Barrett is Jan 12-20 & Phx Open is Jan 28-Feb 3rd.",Test Admin,false,false,0
ObjectId(5c116cbbf1a488422dba6fab),Barrett Jackson & Phoenix Open,We are in need of temporary employees for these events. Please reach out to your friends about the opportunity to work in a fun and fast paced environment! Anyone who is interested will need to contact management @ 480-874-1234.,Test Admin,false,false,0
ObjectId(5c11c3eef1a488422dba730b),Shift Acknowledgement,You've been written up for failure to do shift acknowledgement. Shift Acknowledgement is due 3 days in advance for a given shift. disciplinary action will be necessary if written up more than 4 times. Thanks,Test Admin,false,false,0
ObjectId(5c11c486f1a488422dba7325),Shift Acknowledgement,"Shift acknowledgement is due 3 days before a given shift. Please complete. This is a warning for this week.

Thanks",Test Admin,true,false,0
ObjectId(5c13d9354e885f2c4c616039),Shift Acknowledgment,"If you are receiving this, you have one or more shifts that need to be acknowledged. For every shift that has not been acknowledged, it will result in a write up.",Test Admin,false,false,0
ObjectId(5c17f99779ce7a08eaf7ba37),Morton's Christmas Eve,"Hi guys,

We have an open shift for Christmas Eve. Mortons starts at 1:30pm that day and goes until 9pm. It is expected to be very busy because they have a large upscale Christmas Eve meal service. Please reach out to the MOD today if you can cover.",Test Admin,false,false,0
ObjectId(5c17f9e179ce7a08eaf7bb1a),Morton's Shift Christmas Day,"Correction, The message about the open shift at Morton's was meant for Christmas day. We have an open shift for Christmas day.",Test Admin,false,false,0
ObjectId(5c1bc9ac102c2bdd443db6ce),East shops,We need a valet at East shops within the next hour from 11-2 today. Please contact MOD if you can make it over.,Test Admin,false,false,0
ObjectId(5c1c1ff6102c2bdd443db9dd),5 nights before Christmas,"Good afternoon valets! You are all doing a wonderful job! Keep up the good work! If you need any supplies or jackets, please let me know! Love you all! - Joshua",Test Admin,true,false,0
ObjectId(5c297d10666e9d11c03fdc7a),GILA RIVER,ATTENTION: Gila River Arena is getting slammed and has parked over 95 cars with 3 guys. They are in desperate need of a couple more valets for outbound. Please call MOD if you can help! Gift cards and sparkys will be given to volunteers!,Test Admin,false,false,0
ObjectId(5c29822f666e9d11c03fdd65),Good shifts!,Tomorrow we have Kelly's/clocktower and fat ox open. Both will be extremely busy and be good money shifts. Please let me know if you can work either. Both shifts should be over well before the ball drops so you can make money and celebrate. Text MOD,Test Admin,false,false,0
ObjectId(5c2a58a2666e9d11c03fdfa0),Weather,"Good morning valets! Rain is expected in the forecast today, so please make sure our tickets, paperwork, binders, etc. are in the ziplock bags and closed. If you need new bags on shift, please let MOD know! Thank you!",Test Admin,true,false,0
ObjectId(5c2a9399666e9d11c03fe075),Friendly Reminder,"Good afternoon! If you receiving this, you are scheduled tomorrow. Please enjoy your NYE but please be on time and ready to work your shift. Thank you! 
Have a happy new year! - Epic",Test Admin,true,false,0
ObjectId(5c2aa4d5666e9d11c03fe0f7),On call,Good afternoon! If you are receiving this it is because you are on call  for tomorrow. Please make sure you are available if we need to use you. Thank you! And have a happy new year!,Test Admin,true,false,0
ObjectId(5c311424c43508c3df7abc00),Weather,"Good afternoon valets! Today's a little warmer, but rain is expected sometime this afternoon/evening. Please plan your drives accordingly. Outerwear must be Epic. We do have jackets 4 sale. Please keep tickets and paperwork in ziplock bags. TY",Test Admin,true,false,0
ObjectId(5c33d805c43508c3df7ac2e6),Availability,Availability for the week of 1/20 is due this Wednesday at midnight. Failure to do so will result in suspension for the week (you will not be scheduled) and a write-up. Thanks,Test Admin,true,false,0
ObjectId(5c33d8acc43508c3df7ac34d),Availability,Availability for the week of 1/20 is due this Wednesday at midnight. Failure to do so will result in suspension for the week (you will not be scheduled) and a write-up. Thanks,Test Admin,false,false,0
ObjectId(5c33dbc5c43508c3df7ac3ee),Weather,"In the next few weeks, it is due to rain a bit. MOD will be delivering tickets with large ziplock bags. Please use these bags to keeps all tickets and binders safe from the rain. Thanks!",Test Admin,false,false,0
ObjectId(5c3672ccc43508c3df7aca8f),Availability,Availability for the week of 1/20 is due this Wednesday at midnight. Failure to do so will result in suspension for the week (you will not be scheduled) and a write-up. Thanks,Test Admin,false,false,0
ObjectId(5c38ff45d4a3d072b9177fff),Schedule 1/20,The schedule for the week of the 20th will not be finalized until Tuesday the 22nd at midnight.,Test Admin,true,false,0
ObjectId(5c3e628dce830c0f51ab808c),Availability,"I know this week is busy with Barrett Jackson, but please take 5 minutes to complete availability for the week of January 27th by tomorrow.

Thank you,

Marks",Test Admin,false,false,0
ObjectId(5c44fca9f8bde9810b85d6ac),Schedule 1/27,The schedule for the week of the 27th will not be finalized until Tuesday at midnight. Thank you!,Test Admin,false,false,0
ObjectId(5c48d47a7afeda5a979812a5),Waste Management Phoenix Open,"We are looking for employees that are available during the mornings of Jan 28th-Feb 3rd for the WMPO. If you are available during the times of 6am-4pm any of those days, Please text MOD and we will get you scheduled. Thanks",Test Admin,false,false,0
ObjectId(5c48e4a47afeda5a979813de),Waste Management Phoenix Open Continued,"We have shifts that start at 6am, 7am, 8am, 9am and so on for the WMPO. Whatever time you can start, please let MOD know so we can get you scheduled between Jan 28th-Feb 3rd. We will see you there!! Thanks",Test Admin,false,false,0
ObjectId(5c4e9b38ab7ea8fde0e6ebbc),Schedule week of 2/03/19,The schedule for the week of 2/03/19 will not be final until Monday 1/28 at midnight.,Test Admin,false,false,0
ObjectId(5c54928e0d895beb8b01a188),Schedule for the week of 10th,"Due to the Phoenix Open, the schedule for the week of the 10th will not be official until midnight on Tuesday.  Thank you for your patience.",Test Admin,false,false,0
ObjectId(5c5a01940d895beb8b01af18),Schedule week of 2/10,The schedule for the week of 2/10 will not be complete until Tomorrow 2/6 at midnight. Thanks,Test Admin,false,false,0
ObjectId(5c5d9a94c25516a05de475f2),Acknowledging Shifts,"This is a friendly reminder to acknowledge your shifts. This is very simple to do, all you have to do is click on the shifts while checking out your schedule and then click ""Acknowledge This Shift"". Thank you and have a great day! -Jordan Razey",Test Admin,false,false,0
ObjectId(5c5df4c3c25516a05de47993),Shift Tonight,Good afternoon! We have a shift open at the Galleria garage at 10p. Please let MOD know if you would like to pick it up! Thank you!,Test Admin,false,true,0
ObjectId(5c5df875c25516a05de479c2),We back,"Good afternoon valets! Thank you for all your help these past couple weeks! We will be back out on the field tonight. We miss seeing you all! If you need anything, please let us know. Thank you! - JT & BF",Test Admin,true,false,0
ObjectId(5c6458ae81c5a1c9dbfd4bbb),Weather 2/14,"Rain is forecasted for tmrw. Please add extra time to your commute. It will be wet and cold, but we still expect you to be in full uniform. Undershirts/jackets need to be white. If you need a jacket please let us know. No sweats/joggers. Thx",Test Admin,false,false,0
ObjectId(5c645af381c5a1c9dbfd4c3e),Weather tonight/tomorrow,"Good afternoon valets! Rain is in the forecast for tonight/tomorrow. Please make sure that tickets, binders, etc. are kept in ziplock bags before you leave your shift tonight. Need any ziplock bags, please let MOD know. Thank you!",Test Admin,false,false,0
ObjectId(5c6487b481c5a1c9dbfd4d9c),Availability,Availability for the week of 2/24 is due this Wednesday at midnight. Failure to do so will result in suspension for the week (you will not be scheduled) and a write-up. Thanks,Kevin Blunk,true,false,0
ObjectId(5c68b0fb81c5a1c9dbfd5fa9),2/16,"Good evening! Hope you are all doing well this evening! Please let MOD know if you need anything for the evening. i.e. repairs, bags, tickets, etc. See you out there! - JT & CL",Joshua Timmons,true,false,0
ObjectId(5c6c3ce081c5a1c9dbfd68bf),Availability 3/3/19,"If you have not completed your availability for 3/3/19, please get it done by Wednesday at Midnight. Failure to do so will result in write ups. There are a lot of you that still have not completed it. Please double check . Thanks!",Test Admin,false,false,0
ObjectId(5c6d90ff9e0ac408b959d91b),Availability 3/3,Availability for the week of March 3rd is due tonight by Midnight. Please make sure you log on and submit your availability.,Test Admin,false,false,0
ObjectId(5c6da07e9e0ac408b959da69),Weather,"Storms are expected to roll in later this afternoon and continue though Friday afternoon. Please allow for extra travel time and make sure you are prepared for rain. Bring extra dry clothes, umbrellas, etc. Thanks",Test Admin,false,true,0
ObjectId(5c705f684813e11234a85e50),Cold and Rain!!!,"Please be prepared for the Cold weather and rain tonight. If you have a personal umbrella, it would not be a bad idea to bring it on shift for you and customers. Layer up with clothing and account for traffic on your way to your shifts. BF and KB",Test Admin,false,false,0
ObjectId(5c7946c24813e11234a87a6d),Need help ASAP,We need coverage for a private event this morning effective immediately. Can anybody make it over?,Test Admin,true,false,0
ObjectId(5c794aa14813e11234a87ac7),Need help ASAP,We need coverage for a private event this morning effective immediately. Can anybody make it over?,Test Admin,false,false,0
ObjectId(5c796ee94813e11234a87c25),Maverick's Carpooling,"Good morning! The party this evening is a drive. There will be lots of traffic so we highly recommend carpooling so you can take advantage of the HOV. If you would like, you can meet at our office and leave from here. Thank you and see you tonight!",Test Admin,false,false,0
ObjectId(5c79acab4813e11234a87e35),Website,"Good afternoon valets! We are coming up to the finish line for our website. Any issues or bugs please email josh.timmons@epicvalet.com
Screenshots are v. helpful! Thank you for your help! - Joshua",Joshua Timmons,true,false,0
ObjectId(5c7ae7694813e11234a88272),Rain tonight!,Good afternoon to all of you epic valets!  There is a chance of rain tonight so please take steps to keep tickets and paperwork dry.   Let Mod know if you need plastic bags.  Please dress accordingly and keep yourself warm and safe!  Aaron,Aaron Schneider,true,false,0
ObjectId(5c7d507d67f24237bd9a0a37),Schedule,Good morning. Apologize about the late notice. The schedule will be finalized tonight at midnight. Thank you for your patience! - Epic,Joshua Timmons,true,false,0
ObjectId(5c7eda823bd10d21d5436864),Weather,"Good afternoon! The weather is forecasted to be a bit warmer this week. This does not excuse you to wear shorts. We will inform you when we make the change. 
There is also rain in the forecast for Fri. Please keep tickets and paperwork in bags. - Thx",Joshua Timmons,true,false,0
ObjectId(5c8185d726ae071b51bd21dc),2/7,"Good afternoon valets! If you are receiving this, you are working this afternoon. Please make sure we are arriving on time and ready to work! Keep up the good work! As always, let me know if you need any bags, rubber bands, etc. Thank you - Joshua",Joshua Timmons,true,false,0
ObjectId(5c829f96c404fad16a2c7eb2),Shift Acknowledgement,Please acknowledge your shifts up until Monday. Thank You!,Amber Underhill,true,false,0
ObjectId(5c82b02cc404fad16a2c805c),Mandatory Employee Meeting 4/7,"Hey Guys and Gals,

We will be having a mandatory employee meeting on Sunday April 7th. If you have not been to one previously, you are in for a treat.  There will be food provided and at least one team building activity/game involving cash prizes.",Test Admin,false,false,0
ObjectId(5c82b10ec404fad16a2c818e),Mandatory Employee Meeting 4/7 Cont.,If you are unable to make the meeting you must inform management. We will update you on time and place as the date approaches but we typically start employee meetings around 6PM and they usually do not last longer than 3 hours. Have an EPIC DAY!,Test Admin,false,false,0
ObjectId(5c82be93c404fad16a2c8347),SCHEDULE,Good afternoon valets! The schedule is not finalized until Sunday night at midnight. Please DO NOT post your shifts to the trade board. Thank you,Joshua Timmons,true,false,0
ObjectId(5c82e055c404fad16a2c8525),Fri 3/8,"Good evening valets! If you are receiving this, you are scheduled! Please be on time to work. Kevin and I will be out tonight saying hi and helping you out! Let us know if you are in need of anything. - Joshua",Joshua Timmons,false,false,0
ObjectId(5c8572d1c404fad16a2c8ae8),Test,This is a test text. Please text Joshua if you received it,Joshua Timmons,false,true,0
ObjectId(5c8689e8a0fd0c96ebc58327),Weather,"Good morning valets! Rain is forecasted for the next couple days. Traffic will be slower so plan accordingly. Make sure tickets, paperwork, etc is in ziplock bags. If you need any, contact MOD. All outerwear must be Epic - Thank you",Joshua Timmons,false,false,0
ObjectId(5c87d9e67da4345762b55d23),Shift Acknowledgement,"Please acknowledge your shifts, thank you!",Amber Underhill,false,true,0
ObjectId(5c87ebd57da4345762b55dd7),Uniform Changing to Shorts 4/8,"Good Morning,
We will be switching uniform policy to shorts only effective Monday April 8th. You will be able to pick up shorts either from the office or at the employee meeting on April 7th. If you get shorts from Epic, they will be $15. -management",Jordan Razey,false,false,0
ObjectId(5c898f0e1e31c7a352117e7a),Availability 3/24,Availability for the week of March 24th is due tonight by midnight. Failure to do so will result in write ups and suspension for the week. Thanks,Test Admin,false,false,0
ObjectId(5c8abec0243e06d9929d5ab5),Overnight Position,"Good afternoon valets! Epic Valet is hiring for an overnight position at a new building. This would be full-time hours. If you are interested, please contact Joshua.",Joshua Timmons,false,false,0
ObjectId(5c8ac691243e06d9929d5c29),Overnight Position,"WOW! Thank you for all the quick responses! At this time we have someone in mind. If you are interested in a position like this in the future, please let us know and we will reach out to you first. Thank you!",Joshua Timmons,false,false,0
ObjectId(5c8c39bf8f3ccfcdd95f9b9b),Shifts Not Acknowledged,Shift acknowledgement reminder. Please Acknowledge all of your shifts thank you.,Test Admin,false,false,0
ObjectId(5c8db5288f3ccfcdd95f9f1d),Help at garage tonight,We need an extra guy at the garage tonight. Is there anyone is wanting to pick some extra hours tonight? Please contact the mod line.,Test Admin,false,false,0
ObjectId(5c8fb8a0ba9e9d0fb461b218),Schedule 3/24,The schedule for the week of March 24th will not be final until midnight tonight.  We apologize for the inconvenience.,Test Admin,false,false,0
ObjectId(5c8fc8edba9e9d0fb461b376),Shifts Not Acknowledged,If you have not acknowledged your shifts please do so for the week. Thank you,Amber Underhill,false,false,0
ObjectId(5c8ff259ba9e9d0fb461b419),Warmer Weather,"Good afternoon valets! I know the temperature is rising for the next couple of days. However, we are still in pants until we switch to shorts on April 8th. Thank you!",Joshua Timmons,false,false,0
ObjectId(5c901fdfba9e9d0fb461b693),Employee Meeting Update,"Hi All,

We have an update on location and times for the employee meeting: 6PM Sunday April 7th @ Eldorado Park 2311 N Miller Rd, Scottsdale, AZ 85257. Attire should be casual with shoes comfortable to run/be active in.",Test Admin,true,false,0
ObjectId(5c91335dba9e9d0fb461babb),Availability 3/31,Availability for the week of March 31st is due this Wednesday at Midnight. Please do not forget this . Thanks,Test Admin,true,false,0
ObjectId(5c927b448ec818de38c3608c),Shift Acknowledgement,"Hey you have been on the list almost every day since I have been in the office. If shifts don't start getting acknowledged I will have to do a write up, and your shifts will start being covered by managers",Amber Underhill,false,false,0
ObjectId(5c92ab818ec818de38c361a3),Weather,"Good afternoon! Weather is in the forecast tonight. As always, please keep tickets, binders, paperwork, etc., in ziplock bags. Thank you!",Joshua Timmons,false,false,0
ObjectId(5c92ae7d8ec818de38c362d2),Availability 3/31,Availability for the week of March 31st is due this Wednesday at Midnight. Please do not forget this . Thanks,Test Admin,false,false,0
ObjectId(5c93e0b68ec818de38c366a6),Website Reminder,"Hi all,

Just a reminder that you need to have Google Chrome as your browser while using the website. Many times when an employee is having issues with the website, it is because they are using Safari.",Test Admin,false,false,0
ObjectId(5c993d07393bb1a1dad0353a),Last Minute Party,We just had a last minute private party open up for tomorrow (Tuesday) at 9AM. It will go until about 230 PM. If you can work it please contact the MOD.,Stan Guintchev,false,false,0
ObjectId(5c995b20393bb1a1dad036bc),Website down,"Good evening everyone! The website is currently down, so you will not be able sign in when you arrive at your shift. Please text MOD when you have arrived.",Cody Lawson,false,false,0
ObjectId(5c99ab28393bb1a1dad03956),Website,"The website is back up and running! Thank you for your patience,  so you should be able to log back in.",Cody Lawson,true,false,0
ObjectId(5c9d32464046ea4f7636ce28),Phx Art Museum,"Good afternoon valets! The Phx art museum event was moved to this past Tuesday. Due to a mistake, your shift tomorrow cannot be removed from your schedule.  I apologize about the confusion. Thank you - Joshua",Joshua Timmons,false,false,0
ObjectId(5c9d37404046ea4f7636cea2),Availability 4/7,Please text MOD with your availability for the week of 4/7. Thanks,Test Admin,false,false,0
ObjectId(5c9d3b734046ea4f7636ced4),Traffic,Good afternoon! Traffic is extremely heavy on the 101 due to police activity. Please be cautious and use extra time going to shifts. Drive safe and have a great night!,Joshua Timmons,false,false,0
ObjectId(5c9e5af04046ea4f7636d40d),Any questions call the Office 480-695-9576,"Unfortunately, Epic will be down to one ""J.C."" moving forward.  JC Marks has taken a job in Nashville and is no longer with the company. He will be missed.  Jordan Razey and Quest Wolfe will be picking up most of his daily tasks.",Amber Underhill,false,false,0
ObjectId(5ca241c04046ea4f7636de67),Reminder,"Good morning valets! As a friendly reminder, our meeting is this upcoming Sunday at 6pm. We will be switching to shorts April 8th. Until then, we will continue to wear pants at our shifts. Thank you",Joshua Timmons,false,false,0
ObjectId(5ca26f484046ea4f7636e157),Schedule 4/7,We apologize about the delay and miscommunication. The schedule for the week of 4/7 will be finalized tomorrow. If you have any questions please contact the office. Thank you,Joshua Timmons,false,false,0
ObjectId(5ca4fa111bcd8a5e063a0a0c),Availability 4/14,Please remember to do your availability for the week of 4/14 by tonight at midnight. Thanks,Kevin Blunk,false,false,0
ObjectId(5ca663c418f5f6755b8274ab),Availability/Scheduling,"If you do not do your availability, you will not be scheduled. Without this being completed, we do not know when you can work. It is not managements responsibility to follow up with this.",Test Admin,false,false,0
ObjectId(5ca6668c18f5f6755b8275ff),Availability,"The last message was sent as a reminder to all employees. If you are having issues with your availability, please select submit once and let it load. Thank you",Joshua Timmons,false,false,0
ObjectId(5ca7b4497c113f8382bd25b6),Employee Meeting Reminder,"Hi All, this is a reminder that the mandatory employee meeting is 5:45PM Sunday April 7th @ Eldorado Park 2311 N Miller Rd, Scottsdale, AZ 85257. Attire should be casual with shoes comfortable to run/be active in. Please be on time @ 5:45PM.",Jordan Razey,false,true,0
ObjectId(5ca7dd2c7c113f8382bd27a3),Lot Tracking,Please remember to do your lot tracking on the website when you arrive on shift today. Write ups will be issued if it is not done.,Kevin Blunk,false,false,0
ObjectId(5caa85c17c113f8382bd2e4f),Meeting,"Employee Meeting Reminder : Hi All, this is a reminder that the mandatory employee meeting is 5:45PM Sunday April 7th @ Eldorado Park 2311 N Miller Rd, Scottsdale, AZ 85257. Attire should be casual with shoes comfortable to run/be active in.",Test Admin,false,false,0
ObjectId(5caa97e57c113f8382bd2f9d),Parking,Parking for three meeting will be on the west side side by the baseball fields. See you soon!,Joshua Timmons,false,false,0
ObjectId(5cab85c77c113f8382bd33b5),Tucson Private Party,"Good morning valets! We have a private party in Tucson tomorrow night. The party is from 430p-730p. You will be paid for travel time to and from. If interested, please contact MOD",Joshua Timmons,false,false,0
ObjectId(5cacee4c30c97a04141f7575),Private Party Sheets,If you are receiving this memo it is because you have been written up for not completing  the ticket control sheet at the end of a recent private party you have worked. The whole shift was written up. Please make sure this is getting completed.,Bryce Fagin,false,true,0
ObjectId(5cad259b30c97a04141f768f),Lot Tracking,"This is a friendly reminder to complete the lot tracking for your account tonight. Hope you have a great night and like always if you need anything please reach out. 
Thanks, Cody.",Cody Lawson,false,false,0
ObjectId(5cae755d30c97a04141f79da),Wind & Weather,"Hi all, Tonight it is supposed to be very windy. Please take down all umbrellas and lock the wheels on your podium to prevent them from blowing away. Thank you and have a great day!",Jordan Razey,false,false,0
ObjectId(5cae763030c97a04141f7afb),Availability 4/21,Availability for the week of 4/21 is due tonight by midnight. Failure to do so will result in you not having a schedule for that week. Please get this done. Thanks!,Kevin Blunk,false,false,0
ObjectId(5cafaeed30c97a04141f7fd0),Weather,"Good afternoon valets! There is rain in the forecast this weekend. Please make sure you continue to put tickets, binders, etc in ziplock bags. Please let MOD know ASAP if you need bags. Thank you!",Joshua Timmons,false,false,0
ObjectId(5cb0a8cc474ce1050473dda3),Missed Check-Ins,"Good morning! As you may have noticed, you are receiving an email for missed check-ins. We are aware and working to get that fixed. Thank you - Joshua",Joshua Timmons,false,false,0
ObjectId(5cb0a9bf474ce1050473dec5),Missed checkins,"Also, there is an error and all shifts are being notified to us as late when the valets are clocked in on time.",Test Admin,false,false,0
ObjectId(5cb25119e4b4613122c08a61),Website,"Good afternoon! The website is back up and running today! Please make sure we are using the site for clocking in, opening procedures, lot tracking, and trades. Thank you! - Joshua",Joshua Timmons,false,false,0
ObjectId(5cb4a374e4b4613122c090d1),Overnight shifts on the 26th and 27th,"We are looking for someone to work two overnight shifts at Bridgeview on Tempe Town Lake from 11p-7a on the 26th and 27th.  Great shift to study for finals.  If you are interested, please contact MOD.  If you are already scheduled, we can cover those",Test Admin,false,false,0
ObjectId(5cb4cb64e4b4613122c0927a),Private party tomorrow,We just booked a party for tomorrow from 10:15 am-4:30pm.  Let us know if you want the shift.  We also need someone today at 2211 as soon as possible until 4:00.  Sparkys for whoever helps out!,Test Admin,false,false,0
ObjectId(5cb4f1b4e4b4613122c09415),Weather,"Good afternoon valets! There is rain forecasted this week. Please continue using ziplock bags to keep your tickets, binders, etc dry. If you need to wear a jacket to stay dry, it must be Epic only. Keep up the good work!",Joshua Timmons,false,false,0
ObjectId(5cb61a4ceb26778b3e46dcc9),Dominick's Key Cards,"If you are caught leaving the key cards for Dominick's inside the garage on top of the scanner, you will be permanently removed from the account. This has been asked many times not to do and we continue to not follow the rules. Thank You!",Test Admin,false,false,0
ObjectId(5cb64214eb26778b3e46dea7),Availability 4/28,Availability for the week of 4/28 is due this Wednesday by Midnight. Failure to do so will result in no schedule for that week. Please get this done. Thanks!,Kevin Blunk,false,false,0
ObjectId(5cb65c9aeb26778b3e46e071),Wind advisory,"Due to faster wind speeds today, please keep all umbrellas down.

Thanks!",Kevin Blunk,false,false,0
ObjectId(5cb77c899771a01993b9cbec),Availability 4/28,Availability for the week of 4/28 is due tonight by Midnight. Failure to do so will result in no schedule for the week. Please get this done. Thanks!,Kevin Blunk,false,false,0
ObjectId(5cb78d569771a01993b9cc86),Pictures,Good afternoon! We are looking for photos that we can post on our social media as well as our monthly newsletter. We would love any photos that you have or do take at accounts/parties. Please email them to josh.timmons@epicvalet.com  Thank you!,Joshua Timmons,false,false,0
ObjectId(5cb8ccd99771a01993b9d220),Help at Vi,Good afternoon! We are looking for someone to help out at the Vi from 230p-6p tonight. Whoever picks it up will be given sparkys. Thank you,Joshua Timmons,false,false,0
ObjectId(5cb8ea089771a01993b9d3b0),Overnight shift,We are in need of an employee that would like to work 4 overnight shifts a week at two locations.  This would be for about 32 hours.  We will throw in a tip shift that you prefer.  Please let MOD line know if you are interested.  Thank you!,Test Admin,false,false,0
ObjectId(5cb8fb6e9771a01993b9d4fe),MOD Response Time,"If you are texting the MOD line, it may take time for you to get a response. MODs are often driving from account to account so if  the issue is pertinent, please just give us a call. Thank you for your understanding and for doing such a great job!",Jordan Razey,false,false,0
ObjectId(5cba16216431536c2216eafd),Weather,Good morning valets! Today is expected to be 100. So please bring plenty of water and sunscreen with you to shift. All hats must be Epic Valet and must be facing forward. Please text MOD if you would like to purchase one w/ the size needed. Thank you,Joshua Timmons,false,false,0
ObjectId(5cba4f1d6431536c2216ec9a),Easter Sunday Shift,We have an open shift on Sunday. It is at Westminster village and they always write a check out to each valet for $100 dollars as a tip. The shift is 8:30AM until 3PM. Please contact MOD if you would like to pick it up!,Jordan Razey,false,false,0
ObjectId(5cbbae9a6431536c2216f147),Scott Simas Wedding,The gate code to enter at the complex for tonight's private party is #1052.  After entering please go straight to reach the event.  Thanks Aaron,Amber Underhill,false,false,0
ObjectId(5cbdebc045bc047876cf3af8),Schedule,The schedule for the week of the 28th will be official by midnight tonight. Please do not text MOD about your schedule until tomorrow. We apologize for the inconvenience.,Stan Guintchev,false,false,0
ObjectId(5cbe5f0145bc047876cf3e49),Happy Earth Day!,Happy earth day! Let's stay green and make sure we are throwing our trash away! Don't want to see used tickets everywhere. Keep up the good work! - Joshua,Joshua Timmons,false,false,0
ObjectId(5cbf49b2cf4528877f23d90e),Shift Acknowledgement,Please acknowledge your shifts for the week,Amber Underhill,false,false,0
ObjectId(5cbf4a8bcf4528877f23d911),Shift Acknowledgement,Please Acknowledge your shifts for the week.,Amber Underhill,false,false,0
ObjectId(5cbf5f8ecf4528877f23d965),Availability 5/5,Availability for the week of 5/5 is due this Wednesday by Midnight. Please do not forget to do this or you may not get a schedule for that week. Thanks and keep up the good work!,Kevin Blunk,false,false,0
ObjectId(5cbf7cf3cf4528877f23db1c),4/23,"Good afternoon valets! As always please make sure that tickets, binders, etc is in ziplock bags. Also do not forget to sign in, do ticket control, opening procedures, and lot tracking. Before leaving please make sure you clock out. Thank you!",Joshua Timmons,false,false,0
ObjectId(5cc0c8eacf4528877f23e018),Availability 5/5,Availability for the week of 5/5 is due tonight by Midnight. Please do not forget to do this or you may not get a schedule for that week. Thanks and keep up the good work!,Kevin Blunk,false,false,0
