_id,is_deleted,__v
ObjectId(5c82d238c404fad16a2c84e6),false,0
ObjectId(5c8a8ec2243e06d9929d58f3),false,0
ObjectId(5c952ba58ec818de38c36f17),false,7
ObjectId(5ca861b67c113f8382bd2996),false,2
ObjectId(5cfe2c87a54ff41286bba941),false,0
