_id,missedPunchOut,__v
ObjectId(5c029ae894703e16e134427f),3,0
ObjectId(5c336268c43508c3df7ac105),3,0
ObjectId(5c39f9e9d4a3d072b917840a),6,0
ObjectId(5c3b4b69d4a3d072b91787ef),10,0
ObjectId(5c40916883d2446ed4df4801),5,0
ObjectId(5c41e2e8f8bde9810b85cc54),10,0
ObjectId(5c4485e8f8bde9810b85d412),5,0
ObjectId(5c45d7687afeda5a97980a53),4,0
ObjectId(5c487a687afeda5a9798114d),4,0
ObjectId(5c4b1d6cab7ea8fde0e6e263),7,0
ObjectId(5c4c6ee8ab7ea8fde0e6e679),11,0
ObjectId(5c4dc068ab7ea8fde0e6e9a9),13,0
ObjectId(5c506368ab7ea8fde0e6f078),8,0
ObjectId(5c530668ab7ea8fde0e6f811),6,0
ObjectId(5c55a9680d895beb8b01a4f5),8,0
ObjectId(5c603568c25516a05de480d5),9,0
ObjectId(5c6186eac25516a05de482f6),6,0
ObjectId(5c62d868356a203bf4fcf99a),5,0
ObjectId(5c657b6981c5a1c9dbfd5164),11,0
ObjectId(5c681e6981c5a1c9dbfd5d24),11,0
ObjectId(5c6ac16981c5a1c9dbfd647e),4,0
ObjectId(5c6c12e981c5a1c9dbfd678b),8,0
ObjectId(5c6eb5e99e0ac408b959df2c),8,0
ObjectId(5c70076f4813e11234a85b3e),13,0
ObjectId(5c72aa684813e11234a8654b),7,0
ObjectId(5c73fbe84813e11234a8684b),5,0
ObjectId(5c754d684813e11234a86bb7),8,0
ObjectId(5c769eec4813e11234a86fd7),8,0
ObjectId(5c77f0704813e11234a8756f),3,0
ObjectId(5c7941e84813e11234a87a59),8,0
ObjectId(5c7a93684813e11234a881be),14,0
ObjectId(5c7be4e84813e11234a8862a),18,0
ObjectId(5c7e87e83bd10d21d543679a),2,0
ObjectId(5c812ae926ae071b51bd1dd1),5,0
ObjectId(5c827c68c404fad16a2c7def),8,0
ObjectId(5c83cde8c404fad16a2c881f),1,0
ObjectId(5c87c2687da4345762b55cb7),15,0
ObjectId(5c8a6568243e06d9929d5858),4,0
ObjectId(5c8bb6e88f3ccfcdd95f991e),4,0
ObjectId(5c8d086a8f3ccfcdd95f9d5e),11,0
ObjectId(5c8e59e88f3ccfcdd95fa11b),12,0
ObjectId(5c8fab69ba9e9d0fb461b1fc),3,0
ObjectId(5c90fce9ba9e9d0fb461b974),4,0
ObjectId(5c939fe88ec818de38c365c2),9,0
ObjectId(5c94f1688ec818de38c36e74),11,0
ObjectId(5c9642e88ec818de38c3733e),15,0
ObjectId(5c9794698ec818de38c37772),10,0
ObjectId(5c98e5e8393bb1a1dad0338d),6,0
ObjectId(5c9a3768393bb1a1dad03be3),1,0
ObjectId(5c9cda684046ea4f7636cc5b),2,0
ObjectId(5c9e2be84046ea4f7636d3a1),11,0
ObjectId(5ca220684046ea4f7636de01),2,0
ObjectId(5ca4c3681bcd8a5e063a0957),3,0
ObjectId(5ca614e818f5f6755b8272e5),3,0
ObjectId(5ca766697c113f8382bd24d7),7,0
ObjectId(5ca8b7e87c113f8382bd29cd),8,0
ObjectId(5caa09687c113f8382bd2d01),8,0
ObjectId(5cab5ae87c113f8382bd31f3),4,0
ObjectId(5cacac6830c97a04141f748d),5,0
ObjectId(5cadfde830c97a04141f77dc),3,0
ObjectId(5caf4f6c30c97a04141f7d34),4,0
ObjectId(5cb0a0e8474ce1050473dd86),8,0
ObjectId(5cb343e8e4b4613122c08e43),9,0
ObjectId(5cb49568e4b4613122c0906a),5,0
ObjectId(5cb5e6e8eb26778b3e46db8f),6,0
ObjectId(5cb738689771a01993b9cb1c),2,0
ObjectId(5cb889e89771a01993b9d0d3),2,0
ObjectId(5cbc7e686431536c2216f2cb),9,0
ObjectId(5cbdcfe845bc047876cf3a9d),14,0
ObjectId(5cbf2168cf4528877f23d85f),4,0
ObjectId(5cc072e9cf4528877f23dde7),7,0
ObjectId(5cc1c469cf4528877f23e349),5,0
