_id,is_deleted,my_file.0.filename,my_file.0.filepath,my_file.0.is_deleted,__v,checkOnTop
ObjectId(5a71a7d9e9df509e1fbb46d6),true,knowhowEpic_Valet_website(2),2018-01-3111:26:16___knowhowEpic_Valet_website(2).pdf,true,0,false
ObjectId(5a945775bd64a80386195ef8),false,,,,0,true
ObjectId(5a94578dbd64a80386195ef9),true,Camelback East Shop Training Manual,2018-02-2820:08:15___Camelback East Shop Training Manual.pdf,true,26,false
ObjectId(5ad820fcfcc8561cb64286b5),true,git_tutorial,2018-04-1904:54:20___git_tutorial.pdf,true,0,false
ObjectId(5b6b00a393cd965799b19a0a),true,Epic_Employee_Training_Manual_8-3-18,2018-08-0814:39:30___TrainingManual 8.3.18.pdf,true,0,false
ObjectId(5b6b3b04ce1fd46f034b61e1),true,Camelback East Shops 6.29.18,2018-08-0819:56:48___Camelback East Shops 6.29.18.pdf,true,8,false
ObjectId(5b9303e808da25311cdf7276),true,TrainingManual 9.4.18,2018-09-0723:04:08___TrainingManual 9.4.18.pdf,true,0,false
ObjectId(5b9c5f03e4220fe23c44747d),true,TrainingManual 9.11.18,2018-09-1501:23:15___TrainingManual 9.11.18.pdf,true,0,false
ObjectId(5ba3d5ba7aa8cdb7105aa7fb),false,Camelback East Shops 6.29.18,2018-09-2017:17:59___Camelback East Shops 6.29.18.pdf,false,25,false
ObjectId(5baac1d1ef0d208098278154),true,TrainingManual 9.25.18,2018-09-2523:16:33___TrainingManual 9.25.18.pdf,true,0,false
ObjectId(5bdaa26dfce4d506b28f2bb1),true,TrainingManual 10.8.18,2018-11-0106:51:25___TrainingManual 10.8.18.pdf,true,0,false
ObjectId(5beeb3f34bac89e6e5f8edd0),true,sample,2018-11-1612:17:35___sample.pdf,true,1,false
ObjectId(5beeb3f34bac89e6e5f8edd1),true,,,,0,false
ObjectId(5beeb4a04bac89e6e5f8edd6),true,sample,2018-11-1612:18:00___sample.pdf,true,1,false
ObjectId(5beeb634f7f333a2f055413a),true,,,,0,false
ObjectId(5beeb703f7f333a2f055413c),true,,,,0,false
ObjectId(5beeb704f7f333a2f055413d),true,,,,0,false
ObjectId(5beeb70ff7f333a2f055413e),true,,,,0,false
ObjectId(5beeb70ff7f333a2f055413f),true,,,,0,false
ObjectId(5bf2554a9501439983a64576),true,,,,0,false
ObjectId(5bf2554e9501439983a64577),true,,,,0,false
ObjectId(5bf25de39501439983a6469c),true,sample (1),2018-11-1907:00:38___sample (1).pdf,true,1,false
ObjectId(5bf25de39501439983a6469d),true,,,,0,false
ObjectId(5bf25e899501439983a646a1),true,sample,2018-11-1906:56:08___sample.pdf,true,0,false
ObjectId(5bf25e969501439983a646a3),true,sample,2018-11-1906:56:22___sample.pdf,true,0,false
ObjectId(5bf2606b9501439983a646b1),true,,,,0,false
ObjectId(5bf261019501439983a646b2),true,,,,0,false
ObjectId(5bf261019501439983a646b3),true,,,,0,false
ObjectId(5bf261019501439983a646b4),true,,,,0,false
ObjectId(5bf261019501439983a646b5),true,,,,0,false
ObjectId(5bf261199501439983a646b6),true,sample (1),2018-11-1907:22:56___sample (1).pdf,true,1,false
ObjectId(5bf261199501439983a646b7),true,,,,0,false
ObjectId(5bf265689501439983a646bd),true,sample (1),2018-11-1907:25:38___sample (1).pdf,true,1,false
ObjectId(5bf266139501439983a646c1),true,sample (1),2018-11-1907:28:51___sample (1).pdf,false,3,false
ObjectId(5bf2e2833ce871410ca99957),true,TrainingManual 11.19.18,2018-11-1916:19:14___TrainingManual 11.19.18.pdf,true,0,false
ObjectId(5bf3c79d2f17b30d6f49b48a),true,sample (1),2018-11-2008:37:16___sample (1).pdf,true,1,false
ObjectId(5bf55b30f0d6077e1e88305c),true,sample (1),2018-11-2113:19:01___sample (1).pdf,true,8,false
ObjectId(5bfd3e004f2ff046d51c04ad),true,,,,0,false
ObjectId(5bfd3e004f2ff046d51c04ae),true,,,,0,false
ObjectId(5bfd3e004f2ff046d51c04af),true,,,,0,false
ObjectId(5c0648ffd8816d888aedc392),true,sample (1),2018-12-0409:30:01___sample (1).pdf,true,2,false
ObjectId(5c388832d4a3d072b9177eff),true,,,,0,false
ObjectId(5c388b33d4a3d072b9177f02),true,,,,0,false
ObjectId(5c3ad4c2d4a3d072b9178753),false,Barrett Jackson Info,2019-01-1306:03:46___Barrett Jackson Info.pdf,false,0,false
ObjectId(5c5e044ec25516a05de47a84),true,TrainingManual 2.8.19,2019-02-0822:35:58___TrainingManual 2.8.19.pdf,true,0,true
ObjectId(5c611d78c25516a05de482a6),true,TrainingManual 2.11.19,2019-02-1107:00:03___TrainingManual 2.11.19.pdf,true,0,false
ObjectId(5c67600481c5a1c9dbfd5bb2),true,TrainingManual 2.15.19,2019-02-1600:57:39___TrainingManual 2.15.19.pdf,true,0,false
ObjectId(5c8808347da4345762b55f9e),true,TrainingManual 3.12.19,2019-03-1219:27:48___TrainingManual 3.12.19.pdf,true,0,false
ObjectId(5c928c1d8ec818de38c360f8),false,Example Paperwork,2019-03-2018:53:17___Example Paperwork.pdf,false,0,false
ObjectId(5c9bc05035d2b12a384498bd),false,TrainingManual 3.27.19,2019-03-2718:26:24___TrainingManual 3.27.19.pdf,false,0,false
ObjectId(5ca25ce84046ea4f7636e0bb),true,The House Brasserie,2019-04-0118:48:08___The House Brasserie.pdf,true,0,false
ObjectId(5ca28b5f4046ea4f7636e3e7),true,Fat Ox ,2019-04-0122:06:23___Fat Ox .pdf,true,0,false
